# MagicaVoxel @ Ephtracy

# group
g floor_01_surface_texture

# material
mtllib floor_01_surface_texture.mtl
usemtl palette

# normals
vn -1 0 0
vn 1 0 0
vn 0 0 1
vn 0 0 -1
vn 0 -1 0
vn 0 1 0

# texcoords
vt 0.939453 0.5
vt 0.947266 0.5
vt 0.970703 0.5
vt 0.978516 0.5

# verts
v -25 0 -0
v -25 0 -1
v -25 6 1
v -25 6 -0
v -25 11 1
v -25 11 -0
v -25 12 1
v -25 12 -0
v -25 15 1
v -25 15 -0
v -25 16 1
v -25 16 -0
v -25 16 -1
v -22 1 1
v -22 1 -0
v -22 3 1
v -22 3 -0
v -21 0 1
v -21 0 -0
v -21 1 1
v -21 1 -0
v -18 1 1
v -18 1 -0
v -18 3 1
v -18 3 -0
v -17 0 1
v -17 0 -0
v -17 1 1
v -17 1 -0
v -16 8 1
v -16 8 -0
v -16 9 1
v -16 9 -0
v -15 7 1
v -15 7 -0
v -15 8 1
v -15 8 -0
v -14 6 1
v -14 6 -0
v -14 7 1
v -14 7 -0
v -13 5 1
v -13 5 -0
v -13 6 1
v -13 6 -0
v -12 2 1
v -12 2 -0
v -12 4 1
v -12 4 -0
v -11 1 1
v -11 1 -0
v -11 2 1
v -11 2 -0
v -6 1 1
v -6 1 -0
v -6 2 1
v -6 2 -0
v -5 0 1
v -5 0 -0
v -5 1 1
v -5 1 -0
v -3 9 1
v -3 9 -0
v -3 10 1
v -3 10 -0
v -1 3 1
v -1 3 -0
v -1 5 1
v -1 5 -0
v -1 8 1
v -1 8 -0
v -1 9 1
v -1 9 -0
v 1 0 1
v 1 0 -0
v 1 1 1
v 1 1 -0
v 2 1 1
v 2 1 -0
v 2 2 1
v 2 2 -0
v 2 7 1
v 2 7 -0
v 2 8 1
v 2 8 -0
v 7 4 1
v 7 4 -0
v 7 5 1
v 7 5 -0
v 8 3 1
v 8 3 -0
v 8 4 1
v 8 4 -0
v 9 6 1
v 9 6 -0
v 9 7 1
v 9 7 -0
v 14 7 1
v 14 7 -0
v 14 9 1
v 14 9 -0
v 15 1 1
v 15 1 -0
v 15 3 1
v 15 3 -0
v 15 5 1
v 15 5 -0
v 15 6 1
v 15 6 -0
v 16 0 1
v 16 0 -0
v 16 1 1
v 16 1 -0
v 23 4 1
v 23 4 -0
v 23 5 1
v 23 5 -0
v -19 0 1
v -19 0 -0
v -19 3 1
v -19 3 -0
v -18 7 1
v -18 7 -0
v -18 9 1
v -18 9 -0
v -17 1 1
v -17 1 -0
v -17 3 1
v -17 3 -0
v -16 6 1
v -16 6 -0
v -16 7 1
v -16 7 -0
v -15 0 1
v -15 0 -0
v -15 1 1
v -15 1 -0
v -10 3 1
v -10 3 -0
v -10 4 1
v -10 4 -0
v -9 1 1
v -9 1 -0
v -9 2 1
v -9 2 -0
v -8 2 1
v -8 2 -0
v -8 3 1
v -8 3 -0
v -8 5 1
v -8 5 -0
v -8 6 1
v -8 6 -0
v -5 8 1
v -5 8 -0
v -5 10 1
v -5 10 -0
v -3 0 1
v -3 0 -0
v -3 2 1
v -3 2 -0
v -2 7 1
v -2 7 -0
v -2 8 1
v -2 8 -0
v 0 6 1
v 0 6 -0
v 0 7 1
v 0 7 -0
v 1 3 1
v 1 3 -0
v 1 5 1
v 1 5 -0
v 5 1 1
v 5 1 -0
v 5 2 1
v 5 2 -0
v 8 7 1
v 8 7 -0
v 8 8 1
v 8 8 -0
v 10 4 1
v 10 4 -0
v 10 5 1
v 10 5 -0
v 11 3 1
v 11 3 -0
v 11 4 1
v 11 4 -0
v 12 0 1
v 12 0 -0
v 12 1 1
v 12 1 -0
v 12 8 1
v 12 8 -0
v 12 9 1
v 12 9 -0
v 17 0 1
v 17 0 -0
v 17 1 1
v 17 1 -0
v 18 1 1
v 18 1 -0
v 18 3 1
v 18 3 -0
v 24 4 1
v 24 4 -0
v 24 5 1
v 24 5 -0
v 25 0 -0
v 25 0 -1
v 25 5 1
v 25 5 -0
v 25 11 1
v 25 11 -0
v 25 13 1
v 25 13 -0
v 25 15 1
v 25 15 -0
v 25 16 1
v 25 16 -0
v 25 16 -1
v -25 6 1
v -25 11 1
v -25 12 1
v -25 15 1
v -25 16 1
v -24 11 1
v -24 12 1
v -22 1 1
v -22 3 1
v -21 0 1
v -21 1 1
v -19 0 1
v -19 3 1
v -18 1 1
v -18 3 1
v -18 7 1
v -18 9 1
v -18 12 1
v -18 13 1
v -17 0 1
v -17 1 1
v -17 3 1
v -16 6 1
v -16 7 1
v -16 8 1
v -16 9 1
v -15 0 1
v -15 1 1
v -15 7 1
v -15 8 1
v -15 11 1
v -15 12 1
v -15 13 1
v -14 6 1
v -14 7 1
v -14 11 1
v -14 12 1
v -13 5 1
v -13 6 1
v -12 2 1
v -12 4 1
v -12 9 1
v -12 11 1
v -11 1 1
v -11 2 1
v -11 8 1
v -11 9 1
v -10 3 1
v -10 4 1
v -9 1 1
v -9 2 1
v -9 8 1
v -9 11 1
v -8 2 1
v -8 3 1
v -8 5 1
v -8 6 1
v -6 1 1
v -6 2 1
v -6 13 1
v -6 15 1
v -5 0 1
v -5 1 1
v -5 8 1
v -5 10 1
v -4 14 1
v -4 15 1
v -3 0 1
v -3 2 1
v -3 9 1
v -3 10 1
v -3 13 1
v -3 14 1
v -2 7 1
v -2 8 1
v -1 3 1
v -1 5 1
v -1 8 1
v -1 9 1
v 0 6 1
v 0 7 1
v 1 0 1
v 1 1 1
v 1 3 1
v 1 5 1
v 2 1 1
v 2 2 1
v 2 7 1
v 2 8 1
v 3 10 1
v 3 12 1
v 5 1 1
v 5 2 1
v 6 10 1
v 6 12 1
v 6 13 1
v 6 15 1
v 7 4 1
v 7 5 1
v 8 3 1
v 8 4 1
v 8 7 1
v 8 8 1
v 8 13 1
v 8 14 1
v 9 6 1
v 9 7 1
v 9 11 1
v 9 12 1
v 9 14 1
v 9 15 1
v 10 4 1
v 10 5 1
v 11 3 1
v 11 4 1
v 12 0 1
v 12 1 1
v 12 8 1
v 12 9 1
v 12 11 1
v 12 12 1
v 14 7 1
v 14 9 1
v 15 1 1
v 15 3 1
v 15 5 1
v 15 6 1
v 15 7 1
v 15 9 1
v 16 0 1
v 16 1 1
v 16 6 1
v 16 7 1
v 16 8 1
v 16 9 1
v 17 0 1
v 17 1 1
v 17 7 1
v 17 8 1
v 18 1 1
v 18 3 1
v 20 9 1
v 20 11 1
v 21 11 1
v 21 12 1
v 22 6 1
v 22 7 1
v 22 12 1
v 22 13 1
v 23 4 1
v 23 5 1
v 24 4 1
v 24 5 1
v 24 9 1
v 24 11 1
v 25 5 1
v 25 11 1
v 25 13 1
v 25 15 1
v 25 16 1
v -25 0 -0
v -25 6 -0
v -22 1 -0
v -22 3 -0
v -21 0 -0
v -21 1 -0
v -19 0 -0
v -19 3 -0
v -18 1 -0
v -18 3 -0
v -18 7 -0
v -18 9 -0
v -17 0 -0
v -17 1 -0
v -17 3 -0
v -16 6 -0
v -16 7 -0
v -16 8 -0
v -16 9 -0
v -15 0 -0
v -15 1 -0
v -15 7 -0
v -15 8 -0
v -14 6 -0
v -14 7 -0
v -13 5 -0
v -13 6 -0
v -12 2 -0
v -12 4 -0
v -11 1 -0
v -11 2 -0
v -10 3 -0
v -10 4 -0
v -9 1 -0
v -9 2 -0
v -8 2 -0
v -8 3 -0
v -8 5 -0
v -8 6 -0
v -6 1 -0
v -6 2 -0
v -5 0 -0
v -5 1 -0
v -5 8 -0
v -5 10 -0
v -3 0 -0
v -3 2 -0
v -3 9 -0
v -3 10 -0
v -2 7 -0
v -2 8 -0
v -1 3 -0
v -1 5 -0
v -1 8 -0
v -1 9 -0
v 0 6 -0
v 0 7 -0
v 1 0 -0
v 1 1 -0
v 1 3 -0
v 1 5 -0
v 2 1 -0
v 2 2 -0
v 2 7 -0
v 2 8 -0
v 5 1 -0
v 5 2 -0
v 7 4 -0
v 7 5 -0
v 8 3 -0
v 8 4 -0
v 8 7 -0
v 8 8 -0
v 9 6 -0
v 9 7 -0
v 10 4 -0
v 10 5 -0
v 11 3 -0
v 11 4 -0
v 12 0 -0
v 12 1 -0
v 12 8 -0
v 12 9 -0
v 14 7 -0
v 14 9 -0
v 15 1 -0
v 15 3 -0
v 15 5 -0
v 15 6 -0
v 16 0 -0
v 16 1 -0
v 17 0 -0
v 17 1 -0
v 18 1 -0
v 18 3 -0
v 23 4 -0
v 23 5 -0
v 24 4 -0
v 24 5 -0
v 25 0 -0
v 25 5 -0
v -25 0 -1
v -25 16 -1
v 25 0 -1
v 25 16 -1
v -21 0 1
v -19 0 1
v -17 0 1
v -15 0 1
v -5 0 1
v -3 0 1
v 1 0 1
v 12 0 1
v 16 0 1
v 17 0 1
v -25 0 -0
v -21 0 -0
v -19 0 -0
v -17 0 -0
v -15 0 -0
v -5 0 -0
v -3 0 -0
v 1 0 -0
v 12 0 -0
v 16 0 -0
v 17 0 -0
v 25 0 -0
v -25 0 -1
v 25 0 -1
v -22 1 1
v -21 1 1
v -18 1 1
v -17 1 1
v -11 1 1
v -9 1 1
v -6 1 1
v -5 1 1
v 15 1 1
v 16 1 1
v 17 1 1
v 18 1 1
v -22 1 -0
v -21 1 -0
v -18 1 -0
v -17 1 -0
v -11 1 -0
v -9 1 -0
v -6 1 -0
v -5 1 -0
v 15 1 -0
v 16 1 -0
v 17 1 -0
v 18 1 -0
v -12 2 1
v -11 2 1
v -9 2 1
v -8 2 1
v -12 2 -0
v -11 2 -0
v -9 2 -0
v -8 2 -0
v -1 3 1
v 1 3 1
v 8 3 1
v 11 3 1
v -1 3 -0
v 1 3 -0
v 8 3 -0
v 11 3 -0
v 7 4 1
v 8 4 1
v 23 4 1
v 24 4 1
v 7 4 -0
v 8 4 -0
v 23 4 -0
v 24 4 -0
v -13 5 1
v -8 5 1
v 15 5 1
v 23 5 1
v 24 5 1
v 25 5 1
v -13 5 -0
v -8 5 -0
v 15 5 -0
v 23 5 -0
v 24 5 -0
v 25 5 -0
v -25 6 1
v -16 6 1
v -14 6 1
v -13 6 1
v -8 6 1
v 0 6 1
v 9 6 1
v 15 6 1
v -25 6 -0
v -16 6 -0
v -14 6 -0
v -13 6 -0
v -8 6 -0
v 0 6 -0
v 9 6 -0
v 15 6 -0
v -15 7 1
v -14 7 1
v 2 7 1
v 8 7 1
v -15 7 -0
v -14 7 -0
v 2 7 -0
v 8 7 -0
v -16 8 1
v -15 8 1
v -1 8 1
v 2 8 1
v 8 8 1
v 12 8 1
v -16 8 -0
v -15 8 -0
v -1 8 -0
v 2 8 -0
v 8 8 -0
v 12 8 -0
v -18 9 1
v -16 9 1
v -3 9 1
v -1 9 1
v 12 9 1
v 14 9 1
v -18 9 -0
v -16 9 -0
v -3 9 -0
v -1 9 -0
v 12 9 -0
v 14 9 -0
v -5 10 1
v -3 10 1
v -5 10 -0
v -3 10 -0
v -17 1 1
v -15 1 1
v 1 1 1
v 2 1 1
v 5 1 1
v 12 1 1
v -17 1 -0
v -15 1 -0
v 1 1 -0
v 2 1 -0
v 5 1 -0
v 12 1 -0
v -6 2 1
v -3 2 1
v 2 2 1
v 5 2 1
v -6 2 -0
v -3 2 -0
v 2 2 -0
v 5 2 -0
v -22 3 1
v -19 3 1
v -18 3 1
v -17 3 1
v -10 3 1
v -8 3 1
v 15 3 1
v 18 3 1
v -22 3 -0
v -19 3 -0
v -18 3 -0
v -17 3 -0
v -10 3 -0
v -8 3 -0
v 15 3 -0
v 18 3 -0
v -12 4 1
v -10 4 1
v 10 4 1
v 11 4 1
v -12 4 -0
v -10 4 -0
v 10 4 -0
v 11 4 -0
v -1 5 1
v 1 5 1
v 7 5 1
v 10 5 1
v -1 5 -0
v 1 5 -0
v 7 5 -0
v 10 5 -0
v -18 7 1
v -16 7 1
v -2 7 1
v 0 7 1
v 9 7 1
v 14 7 1
v -18 7 -0
v -16 7 -0
v -2 7 -0
v 0 7 -0
v 9 7 -0
v 14 7 -0
v -5 8 1
v -2 8 1
v -5 8 -0
v -2 8 -0
v -25 16 1
v 25 16 1
v -25 16 -0
v 25 16 -0
v -25 16 -1
v 25 16 -1

# faces
f 4/4/1 2/4/1 1/4/1
f 5/1/1 4/1/1 3/1/1
f 6/4/1 2/4/1 4/4/1
f 6/1/1 4/1/1 5/1/1
f 7/2/1 6/2/1 5/2/1
f 8/4/1 2/4/1 6/4/1
f 8/2/1 6/2/1 7/2/1
f 9/1/1 8/1/1 7/1/1
f 10/4/1 2/4/1 8/4/1
f 10/1/1 8/1/1 9/1/1
f 11/3/1 10/3/1 9/3/1
f 12/4/1 2/4/1 10/4/1
f 12/3/1 10/3/1 11/3/1
f 13/4/1 2/4/1 12/4/1
f 16/1/1 15/1/1 14/1/1
f 17/1/1 15/1/1 16/1/1
f 20/1/1 19/1/1 18/1/1
f 21/1/1 19/1/1 20/1/1
f 24/1/1 23/1/1 22/1/1
f 25/1/1 23/1/1 24/1/1
f 28/1/1 27/1/1 26/1/1
f 29/1/1 27/1/1 28/1/1
f 32/1/1 31/1/1 30/1/1
f 33/1/1 31/1/1 32/1/1
f 36/1/1 35/1/1 34/1/1
f 37/1/1 35/1/1 36/1/1
f 40/1/1 39/1/1 38/1/1
f 41/1/1 39/1/1 40/1/1
f 44/1/1 43/1/1 42/1/1
f 45/1/1 43/1/1 44/1/1
f 48/1/1 47/1/1 46/1/1
f 49/1/1 47/1/1 48/1/1
f 52/1/1 51/1/1 50/1/1
f 53/1/1 51/1/1 52/1/1
f 56/1/1 55/1/1 54/1/1
f 57/1/1 55/1/1 56/1/1
f 60/1/1 59/1/1 58/1/1
f 61/1/1 59/1/1 60/1/1
f 64/1/1 63/1/1 62/1/1
f 65/1/1 63/1/1 64/1/1
f 68/1/1 67/1/1 66/1/1
f 69/1/1 67/1/1 68/1/1
f 72/1/1 71/1/1 70/1/1
f 73/1/1 71/1/1 72/1/1
f 76/1/1 75/1/1 74/1/1
f 77/1/1 75/1/1 76/1/1
f 80/1/1 79/1/1 78/1/1
f 81/1/1 79/1/1 80/1/1
f 84/1/1 83/1/1 82/1/1
f 85/1/1 83/1/1 84/1/1
f 88/1/1 87/1/1 86/1/1
f 89/1/1 87/1/1 88/1/1
f 92/1/1 91/1/1 90/1/1
f 93/1/1 91/1/1 92/1/1
f 96/1/1 95/1/1 94/1/1
f 97/1/1 95/1/1 96/1/1
f 100/1/1 99/1/1 98/1/1
f 101/1/1 99/1/1 100/1/1
f 104/1/1 103/1/1 102/1/1
f 105/1/1 103/1/1 104/1/1
f 108/1/1 107/1/1 106/1/1
f 109/1/1 107/1/1 108/1/1
f 112/1/1 111/1/1 110/1/1
f 113/1/1 111/1/1 112/1/1
f 116/1/1 115/1/1 114/1/1
f 117/1/1 115/1/1 116/1/1
f 118/1/2 119/1/2 120/1/2
f 120/1/2 119/1/2 121/1/2
f 122/1/2 123/1/2 124/1/2
f 124/1/2 123/1/2 125/1/2
f 126/1/2 127/1/2 128/1/2
f 128/1/2 127/1/2 129/1/2
f 130/1/2 131/1/2 132/1/2
f 132/1/2 131/1/2 133/1/2
f 134/1/2 135/1/2 136/1/2
f 136/1/2 135/1/2 137/1/2
f 138/1/2 139/1/2 140/1/2
f 140/1/2 139/1/2 141/1/2
f 142/1/2 143/1/2 144/1/2
f 144/1/2 143/1/2 145/1/2
f 146/1/2 147/1/2 148/1/2
f 148/1/2 147/1/2 149/1/2
f 150/1/2 151/1/2 152/1/2
f 152/1/2 151/1/2 153/1/2
f 154/1/2 155/1/2 156/1/2
f 156/1/2 155/1/2 157/1/2
f 158/1/2 159/1/2 160/1/2
f 160/1/2 159/1/2 161/1/2
f 162/1/2 163/1/2 164/1/2
f 164/1/2 163/1/2 165/1/2
f 166/1/2 167/1/2 168/1/2
f 168/1/2 167/1/2 169/1/2
f 170/1/2 171/1/2 172/1/2
f 172/1/2 171/1/2 173/1/2
f 174/1/2 175/1/2 176/1/2
f 176/1/2 175/1/2 177/1/2
f 178/1/2 179/1/2 180/1/2
f 180/1/2 179/1/2 181/1/2
f 182/1/2 183/1/2 184/1/2
f 184/1/2 183/1/2 185/1/2
f 186/1/2 187/1/2 188/1/2
f 188/1/2 187/1/2 189/1/2
f 190/1/2 191/1/2 192/1/2
f 192/1/2 191/1/2 193/1/2
f 194/1/2 195/1/2 196/1/2
f 196/1/2 195/1/2 197/1/2
f 198/1/2 199/1/2 200/1/2
f 200/1/2 199/1/2 201/1/2
f 202/1/2 203/1/2 204/1/2
f 204/1/2 203/1/2 205/1/2
f 206/1/2 207/1/2 208/1/2
f 208/1/2 207/1/2 209/1/2
f 210/4/2 211/4/2 213/4/2
f 212/1/2 213/1/2 214/1/2
f 213/4/2 211/4/2 215/4/2
f 214/1/2 213/1/2 215/1/2
f 214/2/2 215/2/2 216/2/2
f 215/4/2 211/4/2 217/4/2
f 216/2/2 215/2/2 217/2/2
f 216/1/2 217/1/2 218/1/2
f 217/4/2 211/4/2 219/4/2
f 218/1/2 217/1/2 219/1/2
f 218/3/2 219/3/2 220/3/2
f 219/4/2 211/4/2 221/4/2
f 220/3/2 219/3/2 221/3/2
f 221/4/2 211/4/2 222/4/2
f 228/1/3 224/1/3 223/1/3
f 228/2/3 225/2/3 224/2/3
f 229/1/3 226/1/3 225/1/3
f 229/2/3 225/2/3 228/2/3
f 233/1/3 231/1/3 230/1/3
f 234/1/3 233/1/3 232/1/3
f 235/1/3 231/1/3 233/1/3
f 235/1/3 233/1/3 234/1/3
f 238/1/3 228/1/3 223/1/3
f 238/1/3 229/1/3 228/1/3
f 239/1/3 229/1/3 238/1/3
f 240/1/3 226/1/3 229/1/3
f 240/1/3 229/1/3 239/1/3
f 241/1/3 226/1/3 240/1/3
f 243/1/3 237/1/3 236/1/3
f 244/1/3 237/1/3 243/1/3
f 245/1/3 238/1/3 223/1/3
f 246/1/3 238/1/3 245/1/3
f 248/1/3 240/1/3 239/1/3
f 249/1/3 243/1/3 242/1/3
f 250/1/3 243/1/3 249/1/3
f 252/1/3 248/1/3 247/1/3
f 253/1/3 240/1/3 248/1/3
f 253/1/3 248/1/3 252/1/3
f 254/2/3 241/2/3 240/2/3
f 254/1/3 240/1/3 253/1/3
f 255/1/3 226/1/3 241/1/3
f 255/2/3 241/2/3 254/2/3
f 257/1/3 253/1/3 252/1/3
f 257/1/3 252/1/3 251/1/3
f 258/2/3 254/2/3 253/2/3
f 258/1/3 253/1/3 257/1/3
f 259/1/3 255/1/3 254/1/3
f 259/2/3 254/2/3 258/2/3
f 261/1/3 258/1/3 257/1/3
f 261/1/3 257/1/3 256/1/3
f 261/1/3 259/1/3 258/1/3
f 264/1/3 259/1/3 261/1/3
f 264/1/3 261/1/3 260/1/3
f 265/1/3 259/1/3 264/1/3
f 267/1/3 263/1/3 262/1/3
f 268/1/3 264/1/3 260/1/3
f 269/2/3 265/2/3 264/2/3
f 269/1/3 264/1/3 268/1/3
f 270/1/3 267/1/3 266/1/3
f 270/1/3 263/1/3 267/1/3
f 271/1/3 263/1/3 270/1/3
f 272/1/3 270/1/3 266/1/3
f 273/1/3 270/1/3 272/1/3
f 274/1/3 268/1/3 260/1/3
f 274/2/3 269/2/3 268/2/3
f 275/1/3 259/1/3 265/1/3
f 275/2/3 269/2/3 274/2/3
f 275/2/3 265/2/3 269/2/3
f 276/1/3 270/1/3 273/1/3
f 277/1/3 270/1/3 276/1/3
f 278/1/3 274/1/3 260/1/3
f 278/1/3 275/1/3 274/1/3
f 279/1/3 275/1/3 278/1/3
f 282/1/3 255/1/3 259/1/3
f 282/1/3 226/1/3 255/1/3
f 282/1/3 275/1/3 279/1/3
f 282/1/3 259/1/3 275/1/3
f 283/3/3 227/3/3 226/3/3
f 283/1/3 226/1/3 282/1/3
f 285/1/3 281/1/3 280/1/3
f 286/1/3 282/1/3 279/1/3
f 287/1/3 282/1/3 286/1/3
f 288/2/3 283/2/3 282/2/3
f 289/3/3 227/3/3 283/3/3
f 289/2/3 283/2/3 288/2/3
f 290/1/3 285/1/3 284/1/3
f 291/1/3 281/1/3 285/1/3
f 291/1/3 285/1/3 290/1/3
f 293/1/3 282/1/3 287/1/3
f 294/2/3 288/2/3 282/2/3
f 294/1/3 282/1/3 293/1/3
f 295/1/3 289/1/3 288/1/3
f 295/2/3 288/2/3 294/2/3
f 296/1/3 286/1/3 279/1/3
f 297/1/3 286/1/3 296/1/3
f 301/1/3 293/1/3 292/1/3
f 301/1/3 295/1/3 294/1/3
f 301/1/3 294/1/3 293/1/3
f 302/1/3 296/1/3 279/1/3
f 303/1/3 296/1/3 302/1/3
f 306/1/3 299/1/3 298/1/3
f 307/1/3 299/1/3 306/1/3
f 308/1/3 305/1/3 304/1/3
f 311/1/3 301/1/3 300/1/3
f 312/1/3 295/1/3 301/1/3
f 312/1/3 311/1/3 310/1/3
f 312/1/3 301/1/3 311/1/3
f 313/1/3 295/1/3 312/1/3
f 314/1/3 309/1/3 308/1/3
f 314/1/3 308/1/3 304/1/3
f 315/1/3 309/1/3 314/1/3
f 316/2/3 313/2/3 312/2/3
f 316/1/3 312/1/3 310/1/3
f 317/1/3 295/1/3 313/1/3
f 317/2/3 313/2/3 316/2/3
f 318/1/3 295/1/3 317/1/3
f 319/3/3 227/3/3 289/3/3
f 319/1/3 295/1/3 318/1/3
f 319/1/3 289/1/3 295/1/3
f 323/1/3 321/1/3 320/1/3
f 324/1/3 318/1/3 317/1/3
f 324/1/3 316/1/3 310/1/3
f 324/1/3 317/1/3 316/1/3
f 325/1/3 318/1/3 324/1/3
f 326/2/3 319/2/3 318/2/3
f 326/1/3 318/1/3 325/1/3
f 327/2/3 319/2/3 326/2/3
f 330/1/3 326/1/3 325/1/3
f 330/1/3 327/1/3 326/1/3
f 331/1/3 327/1/3 330/1/3
f 332/2/3 319/2/3 327/2/3
f 332/1/3 327/1/3 331/1/3
f 333/3/3 227/3/3 319/3/3
f 333/2/3 319/2/3 332/2/3
f 334/1/3 323/1/3 322/1/3
f 334/1/3 321/1/3 323/1/3
f 335/1/3 321/1/3 334/1/3
f 336/1/3 334/1/3 322/1/3
f 337/1/3 334/1/3 336/1/3
f 338/1/3 314/1/3 304/1/3
f 339/1/3 314/1/3 338/1/3
f 340/1/3 330/1/3 325/1/3
f 341/1/3 330/1/3 340/1/3
f 342/2/3 331/2/3 330/2/3
f 342/1/3 330/1/3 341/1/3
f 343/1/3 333/1/3 332/1/3
f 343/2/3 331/2/3 342/2/3
f 343/1/3 332/1/3 331/1/3
f 344/1/3 329/1/3 328/1/3
f 345/1/3 342/1/3 341/1/3
f 345/1/3 343/1/3 342/1/3
f 349/1/3 344/1/3 328/1/3
f 349/1/3 345/1/3 344/1/3
f 350/1/3 345/1/3 349/1/3
f 351/1/3 343/1/3 345/1/3
f 351/1/3 345/1/3 350/1/3
f 353/1/3 347/1/3 346/1/3
f 354/1/3 350/1/3 349/1/3
f 354/1/3 349/1/3 348/1/3
f 355/2/3 351/2/3 350/2/3
f 355/1/3 350/1/3 354/1/3
f 356/2/3 351/2/3 355/2/3
f 357/1/3 343/1/3 351/1/3
f 357/2/3 351/2/3 356/2/3
f 358/1/3 353/1/3 352/1/3
f 359/1/3 347/1/3 353/1/3
f 359/1/3 353/1/3 358/1/3
f 360/2/3 356/2/3 355/2/3
f 360/2/3 355/2/3 354/2/3
f 361/1/3 357/1/3 356/1/3
f 361/2/3 356/2/3 360/2/3
f 362/1/3 347/1/3 359/1/3
f 363/1/3 347/1/3 362/1/3
f 364/1/3 357/1/3 361/1/3
f 364/1/3 343/1/3 357/1/3
f 364/1/3 361/1/3 360/1/3
f 365/1/3 343/1/3 364/1/3
f 366/2/3 365/2/3 364/2/3
f 366/1/3 343/1/3 365/1/3
f 367/1/3 333/1/3 343/1/3
f 367/1/3 343/1/3 366/1/3
f 368/2/3 360/2/3 354/2/3
f 368/1/3 354/1/3 348/1/3
f 369/1/3 364/1/3 360/1/3
f 369/2/3 360/2/3 368/2/3
f 370/1/3 333/1/3 367/1/3
f 370/2/3 367/2/3 366/2/3
f 371/1/3 333/1/3 370/1/3
f 373/1/3 369/1/3 368/1/3
f 373/1/3 368/1/3 348/1/3
f 374/1/3 373/1/3 372/1/3
f 375/1/3 369/1/3 373/1/3
f 375/1/3 373/1/3 374/1/3
f 376/2/3 366/2/3 364/2/3
f 376/1/3 369/1/3 375/1/3
f 376/1/3 364/1/3 369/1/3
f 376/2/3 371/2/3 370/2/3
f 376/2/3 370/2/3 366/2/3
f 377/2/3 371/2/3 376/2/3
f 378/1/3 376/1/3 375/1/3
f 378/1/3 377/1/3 376/1/3
f 379/2/3 371/2/3 377/2/3
f 379/1/3 377/1/3 378/1/3
f 380/1/3 333/1/3 371/1/3
f 380/2/3 371/2/3 379/2/3
f 381/3/3 227/3/3 333/3/3
f 381/1/3 333/1/3 380/1/3
f 382/3/3 227/3/3 381/3/3
f 385/4/3 384/4/3 383/4/3
f 386/4/3 384/4/3 385/4/3
f 387/4/3 385/4/3 383/4/3
f 388/4/3 385/4/3 387/4/3
f 390/4/3 384/4/3 386/4/3
f 391/4/3 390/4/3 389/4/3
f 392/4/3 384/4/3 390/4/3
f 392/4/3 390/4/3 391/4/3
f 395/4/3 391/4/3 389/4/3
f 396/4/3 391/4/3 395/4/3
f 397/4/3 384/4/3 392/4/3
f 398/4/3 397/4/3 396/4/3
f 398/4/3 384/4/3 397/4/3
f 399/4/3 394/4/3 393/4/3
f 400/4/3 394/4/3 399/4/3
f 401/4/3 394/4/3 400/4/3
f 403/4/3 398/4/3 396/4/3
f 403/4/3 399/4/3 398/4/3
f 403/4/3 400/4/3 399/4/3
f 404/4/3 400/4/3 403/4/3
f 405/4/3 400/4/3 404/4/3
f 406/4/3 403/4/3 402/4/3
f 406/4/3 404/4/3 403/4/3
f 407/4/3 404/4/3 406/4/3
f 408/4/3 406/4/3 402/4/3
f 409/4/3 406/4/3 408/4/3
f 410/4/3 408/4/3 402/4/3
f 411/4/3 408/4/3 410/4/3
f 412/4/3 410/4/3 402/4/3
f 413/4/3 410/4/3 412/4/3
f 415/4/3 408/4/3 411/4/3
f 416/4/3 412/4/3 402/4/3
f 418/4/3 417/4/3 416/4/3
f 419/4/3 415/4/3 414/4/3
f 420/4/3 408/4/3 415/4/3
f 420/4/3 415/4/3 419/4/3
f 422/4/3 418/4/3 416/4/3
f 422/4/3 421/4/3 420/4/3
f 422/4/3 420/4/3 419/4/3
f 422/4/3 419/4/3 418/4/3
f 422/4/3 416/4/3 402/4/3
f 423/4/3 421/4/3 422/4/3
f 424/4/3 422/4/3 402/4/3
f 425/4/3 422/4/3 424/4/3
f 429/4/3 421/4/3 423/4/3
f 430/4/3 427/4/3 426/4/3
f 431/4/3 427/4/3 430/4/3
f 433/4/3 430/4/3 426/4/3
f 434/4/3 429/4/3 428/4/3
f 434/4/3 421/4/3 429/4/3
f 435/4/3 421/4/3 434/4/3
f 436/4/3 433/4/3 432/4/3
f 436/4/3 430/4/3 433/4/3
f 437/4/3 430/4/3 436/4/3
f 438/4/3 421/4/3 435/4/3
f 439/4/3 436/4/3 432/4/3
f 440/4/3 434/4/3 428/4/3
f 441/4/3 434/4/3 440/4/3
f 442/4/3 434/4/3 441/4/3
f 443/4/3 438/4/3 435/4/3
f 443/4/3 439/4/3 438/4/3
f 444/4/3 442/4/3 441/4/3
f 444/4/3 443/4/3 442/4/3
f 445/4/3 443/4/3 444/4/3
f 446/4/3 439/4/3 443/4/3
f 446/4/3 443/4/3 445/4/3
f 446/4/3 436/4/3 439/4/3
f 447/4/3 436/4/3 446/4/3
f 449/4/3 446/4/3 445/4/3
f 450/4/3 446/4/3 449/4/3
f 450/4/3 449/4/3 448/4/3
f 451/4/3 446/4/3 450/4/3
f 452/4/3 450/4/3 448/4/3
f 453/4/3 450/4/3 452/4/3
f 454/4/3 446/4/3 451/4/3
f 456/4/3 455/4/3 454/4/3
f 456/4/3 454/4/3 451/4/3
f 457/4/3 455/4/3 456/4/3
f 459/4/3 456/4/3 451/4/3
f 460/4/3 452/4/3 448/4/3
f 461/4/3 459/4/3 458/4/3
f 463/4/3 460/4/3 448/4/3
f 463/4/3 461/4/3 460/4/3
f 464/4/3 455/4/3 457/4/3
f 466/4/3 464/4/3 457/4/3
f 466/4/3 465/4/3 464/4/3
f 467/4/3 465/4/3 466/4/3
f 468/4/3 461/4/3 463/4/3
f 468/4/3 463/4/3 462/4/3
f 469/4/3 461/4/3 468/4/3
f 470/4/3 459/4/3 461/4/3
f 470/4/3 461/4/3 469/4/3
f 470/4/3 456/4/3 459/4/3
f 471/4/3 456/4/3 470/4/3
f 472/4/3 468/4/3 462/4/3
f 473/4/3 468/4/3 472/4/3
f 476/4/3 475/4/3 474/4/3
f 477/4/3 470/4/3 469/4/3
f 478/4/3 470/4/3 477/4/3
f 478/4/3 477/4/3 476/4/3
f 479/4/3 470/4/3 478/4/3
f 480/4/3 478/4/3 476/4/3
f 482/4/3 476/4/3 474/4/3
f 482/4/3 481/4/3 480/4/3
f 482/4/3 480/4/3 476/4/3
f 483/4/3 481/4/3 482/4/3
f 484/4/4 485/4/4 486/4/4
f 486/4/4 485/4/4 487/4/4
f 499/1/5 489/1/5 488/1/5
f 500/1/5 489/1/5 499/1/5
f 501/1/5 491/1/5 490/1/5
f 502/1/5 491/1/5 501/1/5
f 503/1/5 493/1/5 492/1/5
f 504/1/5 493/1/5 503/1/5
f 505/1/5 495/1/5 494/1/5
f 506/1/5 495/1/5 505/1/5
f 507/1/5 497/1/5 496/1/5
f 508/1/5 497/1/5 507/1/5
f 510/4/5 506/4/5 505/4/5
f 510/4/5 509/4/5 508/4/5
f 510/4/5 508/4/5 507/4/5
f 510/4/5 507/4/5 506/4/5
f 510/4/5 500/4/5 499/4/5
f 510/4/5 505/4/5 504/4/5
f 510/4/5 502/4/5 501/4/5
f 510/4/5 503/4/5 502/4/5
f 510/4/5 504/4/5 503/4/5
f 510/4/5 501/4/5 500/4/5
f 510/4/5 499/4/5 498/4/5
f 511/4/5 509/4/5 510/4/5
f 524/1/5 513/1/5 512/1/5
f 525/1/5 513/1/5 524/1/5
f 526/1/5 515/1/5 514/1/5
f 527/1/5 515/1/5 526/1/5
f 528/1/5 517/1/5 516/1/5
f 529/1/5 517/1/5 528/1/5
f 530/1/5 519/1/5 518/1/5
f 531/1/5 519/1/5 530/1/5
f 532/1/5 521/1/5 520/1/5
f 533/1/5 521/1/5 532/1/5
f 534/1/5 523/1/5 522/1/5
f 535/1/5 523/1/5 534/1/5
f 540/1/5 537/1/5 536/1/5
f 541/1/5 537/1/5 540/1/5
f 542/1/5 539/1/5 538/1/5
f 543/1/5 539/1/5 542/1/5
f 548/1/5 545/1/5 544/1/5
f 549/1/5 545/1/5 548/1/5
f 550/1/5 547/1/5 546/1/5
f 551/1/5 547/1/5 550/1/5
f 556/1/5 553/1/5 552/1/5
f 557/1/5 553/1/5 556/1/5
f 558/1/5 555/1/5 554/1/5
f 559/1/5 555/1/5 558/1/5
f 566/1/5 561/1/5 560/1/5
f 567/1/5 561/1/5 566/1/5
f 568/1/5 563/1/5 562/1/5
f 569/1/5 563/1/5 568/1/5
f 570/1/5 565/1/5 564/1/5
f 571/1/5 565/1/5 570/1/5
f 580/1/5 573/1/5 572/1/5
f 581/1/5 573/1/5 580/1/5
f 582/1/5 575/1/5 574/1/5
f 583/1/5 575/1/5 582/1/5
f 584/1/5 577/1/5 576/1/5
f 585/1/5 577/1/5 584/1/5
f 586/1/5 579/1/5 578/1/5
f 587/1/5 579/1/5 586/1/5
f 592/1/5 589/1/5 588/1/5
f 593/1/5 589/1/5 592/1/5
f 594/1/5 591/1/5 590/1/5
f 595/1/5 591/1/5 594/1/5
f 602/1/5 597/1/5 596/1/5
f 603/1/5 597/1/5 602/1/5
f 604/1/5 599/1/5 598/1/5
f 605/1/5 599/1/5 604/1/5
f 606/1/5 601/1/5 600/1/5
f 607/1/5 601/1/5 606/1/5
f 614/1/5 609/1/5 608/1/5
f 615/1/5 609/1/5 614/1/5
f 616/1/5 611/1/5 610/1/5
f 617/1/5 611/1/5 616/1/5
f 618/1/5 613/1/5 612/1/5
f 619/1/5 613/1/5 618/1/5
f 622/1/5 621/1/5 620/1/5
f 623/1/5 621/1/5 622/1/5
f 624/1/6 625/1/6 630/1/6
f 630/1/6 625/1/6 631/1/6
f 626/1/6 627/1/6 632/1/6
f 632/1/6 627/1/6 633/1/6
f 628/1/6 629/1/6 634/1/6
f 634/1/6 629/1/6 635/1/6
f 636/1/6 637/1/6 640/1/6
f 640/1/6 637/1/6 641/1/6
f 638/1/6 639/1/6 642/1/6
f 642/1/6 639/1/6 643/1/6
f 644/1/6 645/1/6 652/1/6
f 652/1/6 645/1/6 653/1/6
f 646/1/6 647/1/6 654/1/6
f 654/1/6 647/1/6 655/1/6
f 648/1/6 649/1/6 656/1/6
f 656/1/6 649/1/6 657/1/6
f 650/1/6 651/1/6 658/1/6
f 658/1/6 651/1/6 659/1/6
f 660/1/6 661/1/6 664/1/6
f 664/1/6 661/1/6 665/1/6
f 662/1/6 663/1/6 666/1/6
f 666/1/6 663/1/6 667/1/6
f 668/1/6 669/1/6 672/1/6
f 672/1/6 669/1/6 673/1/6
f 670/1/6 671/1/6 674/1/6
f 674/1/6 671/1/6 675/1/6
f 676/1/6 677/1/6 682/1/6
f 682/1/6 677/1/6 683/1/6
f 678/1/6 679/1/6 684/1/6
f 684/1/6 679/1/6 685/1/6
f 680/1/6 681/1/6 686/1/6
f 686/1/6 681/1/6 687/1/6
f 688/1/6 689/1/6 690/1/6
f 690/1/6 689/1/6 691/1/6
f 692/3/6 693/3/6 694/3/6
f 694/3/6 693/3/6 695/3/6
f 694/4/6 695/4/6 696/4/6
f 696/4/6 695/4/6 697/4/6
