# MagicaVoxel @ Ephtracy

# group
g stone_fence_post_02

# material
mtllib stone_fence_post_02.mtl
usemtl palette

# normals
vn -1 0 0
vn 1 0 0
vn 0 0 1
vn 0 0 -1
vn 0 -1 0
vn 0 1 0

# texcoords
vt 0.939453 0.5
vt 0.943359 0.5
vt 0.970703 0.5
vt 0.990234 0.5

# verts
v -3 0 3.5
v -3 0 -3.5
v -3 1 3.5
v -3 1 -0.5
v -3 1 -1.5
v -3 1 -3.5
v -3 2 -0.5
v -3 2 -1.5
v -2 1 2.5
v -2 1 -0.5
v -2 1 -1.5
v -2 1 -2.5
v -2 2 2.5
v -2 2 -0.5
v -2 2 -1.5
v -2 2 -2.5
v -2 7 2.5
v -2 7 1.5
v -2 7 -0.5
v -2 7 -1.5
v -2 7 -2.5
v -2 8 2.5
v -2 8 1.5
v -2 8 -0.5
v -2 8 -1.5
v -2 8 -2.5
v -2 10 2.5
v -2 10 -2.5
v -2 11 2.5
v -2 11 -2.5
v -2 13 2.5
v -2 13 1.5
v -2 13 -1.5
v -2 13 -2.5
v -2 14 2.5
v -2 14 1.5
v -2 14 -1.5
v -2 14 -2.5
v -1 2 2.5
v -1 2 1.5
v -1 2 -1.5
v -1 3 2.5
v -1 3 1.5
v -1 6 0.5
v -1 6 -0.5
v -1 7 1.5
v -1 7 0.5
v -1 7 -0.5
v -1 7 -1.5
v -1 8 1.5
v -1 8 0.5
v -1 8 -0.5
v -1 8 -1.5
v -1 9 1.5
v -1 9 0.5
v -1 9 -0.5
v -1 9 -1.5
v -1 10 1.5
v -1 10 -0.5
v -1 10 -1.5
v -1 11 1.5
v -1 11 -1.5
v -1 13 1.5
v -1 13 -1.5
v 0 2 2.5
v 0 2 1.5
v 0 3 2.5
v 0 3 1.5
v 1 2 1.5
v 1 2 -0.5
v 1 3 -0.5
v 1 3 -1.5
v 1 4 -0.5
v 1 4 -1.5
v 1 7 1.5
v 1 7 -0.5
v 1 7 -1.5
v 1 8 1.5
v 1 8 0.5
v 1 8 -1.5
v 1 9 1.5
v 1 9 0.5
v 1 10 1.5
v 1 10 -1.5
v 1 11 1.5
v 1 11 -0.5
v 1 12 -0.5
v 1 12 -1.5
v 1 13 1.5
v 1 13 -1.5
v 2 1 2.5
v 2 1 -2.5
v 2 2 2.5
v 2 2 -0.5
v 2 2 -1.5
v 2 2 -2.5
v 2 3 -0.5
v 2 3 -1.5
v 2 7 2.5
v 2 7 -1.5
v 2 7 -2.5
v 2 8 2.5
v 2 8 -1.5
v 2 8 -2.5
v 2 10 2.5
v 2 10 -2.5
v 2 11 2.5
v 2 11 -0.5
v 2 11 -1.5
v 2 11 -2.5
v 2 12 -0.5
v 2 12 -1.5
v 2 13 2.5
v 2 13 -2.5
v 2 14 2.5
v 2 14 -2.5
v 3 0 3.5
v 3 0 2.5
v 3 0 -3.5
v 3 1 3.5
v 3 1 2.5
v 3 1 -3.5
v -3 0 3.5
v -3 1 3.5
v 2 0 3.5
v 2 1 3.5
v 3 0 3.5
v 3 1 3.5
v -2 1 2.5
v -2 2 2.5
v -2 7 2.5
v -2 8 2.5
v -2 10 2.5
v -2 11 2.5
v -2 13 2.5
v -2 14 2.5
v -1 1 2.5
v -1 2 2.5
v -1 3 2.5
v 0 1 2.5
v 0 2 2.5
v 0 3 2.5
v 1 13 2.5
v 1 14 2.5
v 2 1 2.5
v 2 2 2.5
v 2 7 2.5
v 2 8 2.5
v 2 10 2.5
v 2 11 2.5
v 2 13 2.5
v 2 14 2.5
v -1 3 1.5
v -1 7 1.5
v -1 8 1.5
v -1 9 1.5
v -1 10 1.5
v -1 11 1.5
v -1 13 1.5
v 0 2 1.5
v 0 3 1.5
v 1 2 1.5
v 1 7 1.5
v 1 8 1.5
v 1 9 1.5
v 1 10 1.5
v 1 11 1.5
v 1 13 1.5
v -3 1 -0.5
v -3 2 -0.5
v -2 1 -0.5
v -2 2 -0.5
v 1 2 -0.5
v 1 3 -0.5
v 1 11 -0.5
v 1 12 -0.5
v 2 2 -0.5
v 2 3 -0.5
v 2 11 -0.5
v 2 12 -0.5
v -3 1 -1.5
v -3 2 -1.5
v -2 1 -1.5
v -2 2 -1.5
v -1 2 -1.5
v -1 7 -1.5
v -1 8 -1.5
v -1 9 -1.5
v -1 10 -1.5
v -1 11 -1.5
v -1 13 -1.5
v 0 4 -1.5
v 0 7 -1.5
v 0 9 -1.5
v 0 10 -1.5
v 1 2 -1.5
v 1 3 -1.5
v 1 4 -1.5
v 1 7 -1.5
v 1 8 -1.5
v 1 10 -1.5
v 1 11 -1.5
v 1 12 -1.5
v 1 13 -1.5
v 2 2 -1.5
v 2 3 -1.5
v 2 11 -1.5
v 2 12 -1.5
v -2 1 -2.5
v -2 2 -2.5
v -2 7 -2.5
v -2 8 -2.5
v -2 10 -2.5
v -2 11 -2.5
v -2 13 -2.5
v -2 14 -2.5
v -1 1 -2.5
v -1 2 -2.5
v -1 13 -2.5
v -1 14 -2.5
v 1 7 -2.5
v 1 8 -2.5
v 2 1 -2.5
v 2 2 -2.5
v 2 7 -2.5
v 2 8 -2.5
v 2 10 -2.5
v 2 11 -2.5
v 2 13 -2.5
v 2 14 -2.5
v -3 0 -3.5
v -3 1 -3.5
v 3 0 -3.5
v 3 1 -3.5
v -3 0 3.5
v 2 0 3.5
v 3 0 3.5
v 2 0 2.5
v 3 0 2.5
v -3 0 -3.5
v 3 0 -3.5
v -2 7 2.5
v 2 7 2.5
v -2 7 1.5
v -1 7 1.5
v 1 7 1.5
v -1 7 0.5
v -2 7 -0.5
v -1 7 -0.5
v 1 7 -0.5
v -2 7 -1.5
v -1 7 -1.5
v 0 7 -1.5
v 1 7 -1.5
v 2 7 -1.5
v -2 7 -2.5
v 1 7 -2.5
v 2 7 -2.5
v -2 10 2.5
v 2 10 2.5
v -1 10 1.5
v 1 10 1.5
v -1 10 -0.5
v -1 10 -1.5
v 0 10 -1.5
v 1 10 -1.5
v -2 10 -2.5
v 2 10 -2.5
v -2 13 2.5
v 1 13 2.5
v 2 13 2.5
v -2 13 1.5
v -1 13 1.5
v 1 13 1.5
v -2 13 -1.5
v -1 13 -1.5
v 1 13 -1.5
v -2 13 -2.5
v -1 13 -2.5
v 2 13 -2.5
v -3 1 3.5
v 2 1 3.5
v 3 1 3.5
v -2 1 2.5
v -1 1 2.5
v 0 1 2.5
v 2 1 2.5
v 3 1 2.5
v -3 1 -0.5
v -2 1 -0.5
v -3 1 -1.5
v -2 1 -1.5
v -2 1 -2.5
v -1 1 -2.5
v 2 1 -2.5
v -3 1 -3.5
v 3 1 -3.5
v -2 2 2.5
v -1 2 2.5
v 0 2 2.5
v 2 2 2.5
v -1 2 1.5
v 0 2 1.5
v 1 2 1.5
v -3 2 -0.5
v -2 2 -0.5
v 1 2 -0.5
v 2 2 -0.5
v -3 2 -1.5
v -2 2 -1.5
v -1 2 -1.5
v 1 2 -1.5
v 2 2 -1.5
v -2 2 -2.5
v -1 2 -2.5
v 2 2 -2.5
v -1 3 2.5
v 0 3 2.5
v -1 3 1.5
v 0 3 1.5
v 1 3 -0.5
v 2 3 -0.5
v 1 3 -1.5
v 2 3 -1.5
v -2 8 2.5
v 2 8 2.5
v -2 8 1.5
v -1 8 1.5
v 1 8 1.5
v -1 8 0.5
v 1 8 0.5
v -2 8 -0.5
v -1 8 -0.5
v -2 8 -1.5
v -1 8 -1.5
v 1 8 -1.5
v 2 8 -1.5
v -2 8 -2.5
v 1 8 -2.5
v 2 8 -2.5
v -2 11 2.5
v 2 11 2.5
v -1 11 1.5
v 1 11 1.5
v 1 11 -0.5
v 2 11 -0.5
v -1 11 -1.5
v 1 11 -1.5
v 2 11 -1.5
v -2 11 -2.5
v 2 11 -2.5
v 1 12 -0.5
v 2 12 -0.5
v 1 12 -1.5
v 2 12 -1.5
v -2 14 2.5
v 1 14 2.5
v 2 14 2.5
v -2 14 1.5
v 1 14 1.5
v -2 14 -1.5
v -1 14 -1.5
v -2 14 -2.5
v -1 14 -2.5
v 2 14 -2.5

# faces
f 3/3/1 2/3/1 1/3/1
f 4/3/1 2/3/1 3/3/1
f 5/3/1 2/3/1 4/3/1
f 6/3/1 2/3/1 5/3/1
f 7/4/1 5/4/1 4/4/1
f 8/4/1 5/4/1 7/4/1
f 13/2/1 10/2/1 9/2/1
f 14/2/1 10/2/1 13/2/1
f 15/1/1 12/1/1 11/1/1
f 16/1/1 12/1/1 15/1/1
f 22/2/1 18/2/1 17/2/1
f 23/3/1 19/3/1 18/3/1
f 23/2/1 18/2/1 22/2/1
f 24/1/1 20/1/1 19/1/1
f 24/3/1 19/3/1 23/3/1
f 25/2/1 21/2/1 20/2/1
f 25/1/1 20/1/1 24/1/1
f 26/2/1 21/2/1 25/2/1
f 29/2/1 28/2/1 27/2/1
f 30/2/1 28/2/1 29/2/1
f 35/1/1 32/1/1 31/1/1
f 36/3/1 33/3/1 32/3/1
f 36/1/1 32/1/1 35/1/1
f 37/2/1 34/2/1 33/2/1
f 37/3/1 33/3/1 36/3/1
f 38/2/1 34/2/1 37/2/1
f 42/4/1 40/4/1 39/4/1
f 43/3/1 41/3/1 40/3/1
f 43/4/1 40/4/1 42/4/1
f 44/3/1 41/3/1 43/3/1
f 45/3/1 41/3/1 44/3/1
f 46/3/1 44/3/1 43/3/1
f 47/1/1 45/1/1 44/1/1
f 47/3/1 44/3/1 46/3/1
f 48/3/1 41/3/1 45/3/1
f 48/1/1 45/1/1 47/1/1
f 49/3/1 41/3/1 48/3/1
f 54/1/1 51/1/1 50/1/1
f 55/3/1 53/3/1 52/3/1
f 55/1/1 51/1/1 54/1/1
f 55/3/1 52/3/1 51/3/1
f 56/3/1 53/3/1 55/3/1
f 57/3/1 53/3/1 56/3/1
f 58/3/1 55/3/1 54/3/1
f 58/3/1 56/3/1 55/3/1
f 59/1/1 57/1/1 56/1/1
f 59/3/1 56/3/1 58/3/1
f 60/1/1 57/1/1 59/1/1
f 63/3/1 62/3/1 61/3/1
f 64/3/1 62/3/1 63/3/1
f 65/4/2 66/4/2 67/4/2
f 67/4/2 66/4/2 68/4/2
f 69/3/2 70/3/2 71/3/2
f 69/3/2 71/3/2 73/3/2
f 71/3/2 72/3/2 73/3/2
f 73/3/2 72/3/2 74/3/2
f 69/3/2 73/3/2 75/3/2
f 73/1/2 74/1/2 76/1/2
f 75/3/2 73/3/2 76/3/2
f 76/1/2 74/1/2 77/1/2
f 78/1/2 79/1/2 81/1/2
f 79/3/2 80/3/2 82/3/2
f 81/1/2 79/1/2 82/1/2
f 81/3/2 82/3/2 83/3/2
f 82/3/2 80/3/2 84/3/2
f 83/3/2 82/3/2 84/3/2
f 85/3/2 86/3/2 87/3/2
f 85/3/2 87/3/2 89/3/2
f 87/3/2 88/3/2 89/3/2
f 89/3/2 88/3/2 90/3/2
f 91/2/2 92/2/2 93/2/2
f 93/2/2 92/2/2 94/2/2
f 94/2/2 92/2/2 95/2/2
f 95/2/2 92/2/2 96/2/2
f 94/4/2 95/4/2 97/4/2
f 97/4/2 95/4/2 98/4/2
f 99/2/2 100/2/2 102/2/2
f 100/1/2 101/1/2 103/1/2
f 102/2/2 100/2/2 103/2/2
f 103/1/2 101/1/2 104/1/2
f 105/2/2 106/2/2 107/2/2
f 107/2/2 106/2/2 108/2/2
f 108/2/2 106/2/2 109/2/2
f 109/2/2 106/2/2 110/2/2
f 108/1/2 109/1/2 111/1/2
f 111/1/2 109/1/2 112/1/2
f 113/3/2 114/3/2 115/3/2
f 115/3/2 114/3/2 116/3/2
f 117/1/2 118/1/2 120/1/2
f 118/3/2 119/3/2 121/3/2
f 120/1/2 118/1/2 121/1/2
f 121/3/2 119/3/2 122/3/2
f 125/3/3 124/3/3 123/3/3
f 126/3/3 124/3/3 125/3/3
f 127/1/3 126/1/3 125/1/3
f 128/1/3 126/1/3 127/1/3
f 137/2/3 130/2/3 129/2/3
f 138/2/3 130/2/3 137/2/3
f 140/1/3 138/1/3 137/1/3
f 141/4/3 139/4/3 138/4/3
f 141/1/3 138/1/3 140/1/3
f 142/4/3 139/4/3 141/4/3
f 143/1/3 136/1/3 135/1/3
f 144/1/3 136/1/3 143/1/3
f 145/2/3 141/2/3 140/2/3
f 146/2/3 141/2/3 145/2/3
f 147/2/3 132/2/3 131/2/3
f 148/2/3 132/2/3 147/2/3
f 149/2/3 134/2/3 133/2/3
f 150/2/3 134/2/3 149/2/3
f 151/3/3 144/3/3 143/3/3
f 152/3/3 144/3/3 151/3/3
f 161/3/3 154/3/3 153/3/3
f 162/3/3 161/3/3 160/3/3
f 163/3/3 154/3/3 161/3/3
f 163/3/3 161/3/3 162/3/3
f 164/1/3 156/1/3 155/1/3
f 165/3/3 157/3/3 156/3/3
f 165/1/3 156/1/3 164/1/3
f 166/3/3 157/3/3 165/3/3
f 167/3/3 159/3/3 158/3/3
f 168/3/3 159/3/3 167/3/3
f 171/4/3 170/4/3 169/4/3
f 172/4/3 170/4/3 171/4/3
f 177/4/3 174/4/3 173/4/3
f 178/4/3 174/4/3 177/4/3
f 179/1/3 176/1/3 175/1/3
f 180/1/3 176/1/3 179/1/3
f 181/4/4 182/4/4 183/4/4
f 183/4/4 182/4/4 184/4/4
f 185/3/4 186/3/4 192/3/4
f 192/3/4 186/3/4 193/3/4
f 187/3/4 188/3/4 194/3/4
f 188/1/4 189/1/4 194/1/4
f 194/1/4 189/1/4 195/1/4
f 185/3/4 192/3/4 196/3/4
f 196/3/4 192/3/4 197/3/4
f 192/1/4 193/1/4 198/1/4
f 197/3/4 192/3/4 198/3/4
f 198/1/4 193/1/4 199/1/4
f 187/3/4 194/3/4 200/3/4
f 194/3/4 195/3/4 200/3/4
f 200/3/4 195/3/4 201/3/4
f 190/3/4 191/3/4 202/3/4
f 202/3/4 191/3/4 203/3/4
f 203/3/4 191/3/4 204/3/4
f 196/4/4 197/4/4 205/4/4
f 205/4/4 197/4/4 206/4/4
f 202/1/4 203/1/4 207/1/4
f 207/1/4 203/1/4 208/1/4
f 209/1/4 210/1/4 217/1/4
f 217/1/4 210/1/4 218/1/4
f 215/2/4 216/2/4 219/2/4
f 219/2/4 216/2/4 220/2/4
f 211/2/4 212/2/4 221/2/4
f 221/2/4 212/2/4 222/2/4
f 217/2/4 218/2/4 223/2/4
f 223/2/4 218/2/4 224/2/4
f 221/1/4 222/1/4 225/1/4
f 225/1/4 222/1/4 226/1/4
f 213/2/4 214/2/4 227/2/4
f 227/2/4 214/2/4 228/2/4
f 219/3/4 220/3/4 229/3/4
f 229/3/4 220/3/4 230/3/4
f 231/3/4 232/3/4 233/3/4
f 233/3/4 232/3/4 234/3/4
f 238/3/5 236/3/5 235/3/5
f 238/1/5 237/1/5 236/1/5
f 239/1/5 237/1/5 238/1/5
f 240/3/5 238/3/5 235/3/5
f 240/3/5 239/3/5 238/3/5
f 241/3/5 239/3/5 240/3/5
f 244/2/5 243/2/5 242/2/5
f 245/2/5 243/2/5 244/2/5
f 246/2/5 243/2/5 245/2/5
f 247/3/5 245/3/5 244/3/5
f 248/3/5 247/3/5 244/3/5
f 249/3/5 247/3/5 248/3/5
f 250/2/5 243/2/5 246/2/5
f 251/1/5 249/1/5 248/1/5
f 252/1/5 249/1/5 251/1/5
f 254/2/5 243/2/5 250/2/5
f 255/2/5 243/2/5 254/2/5
f 256/2/5 253/2/5 252/2/5
f 256/2/5 252/2/5 251/2/5
f 256/2/5 254/2/5 253/2/5
f 257/1/5 255/1/5 254/1/5
f 257/2/5 254/2/5 256/2/5
f 258/1/5 255/1/5 257/1/5
f 261/2/5 260/2/5 259/2/5
f 262/2/5 260/2/5 261/2/5
f 263/2/5 261/2/5 259/2/5
f 264/2/5 263/2/5 259/2/5
f 266/2/5 260/2/5 262/2/5
f 267/2/5 265/2/5 264/2/5
f 267/2/5 266/2/5 265/2/5
f 267/2/5 264/2/5 259/2/5
f 268/2/5 260/2/5 266/2/5
f 268/2/5 266/2/5 267/2/5
f 272/1/5 270/1/5 269/1/5
f 273/1/5 270/1/5 272/1/5
f 274/3/5 271/3/5 270/3/5
f 274/1/5 270/1/5 273/1/5
f 275/3/5 273/3/5 272/3/5
f 276/3/5 273/3/5 275/3/5
f 277/3/5 271/3/5 274/3/5
f 278/2/5 276/2/5 275/2/5
f 279/3/5 277/3/5 276/3/5
f 279/2/5 276/2/5 278/2/5
f 280/3/5 271/3/5 277/3/5
f 280/3/5 277/3/5 279/3/5
f 281/3/6 282/3/6 284/3/6
f 284/3/6 282/3/6 285/3/6
f 285/3/6 282/3/6 286/3/6
f 282/1/6 283/1/6 287/1/6
f 286/3/6 282/3/6 287/3/6
f 287/1/6 283/1/6 288/1/6
f 281/3/6 284/3/6 289/3/6
f 289/3/6 284/3/6 290/3/6
f 291/3/6 292/3/6 293/3/6
f 287/3/6 288/3/6 295/3/6
f 293/3/6 294/3/6 296/3/6
f 294/3/6 295/3/6 296/3/6
f 291/3/6 293/3/6 296/3/6
f 295/3/6 288/3/6 297/3/6
f 296/3/6 295/3/6 297/3/6
f 298/2/6 299/2/6 302/2/6
f 300/2/6 301/2/6 303/2/6
f 303/2/6 301/2/6 304/2/6
f 298/2/6 302/2/6 306/2/6
f 304/2/6 301/2/6 307/2/6
f 307/2/6 301/2/6 308/2/6
f 305/4/6 306/4/6 309/4/6
f 306/2/6 302/2/6 310/2/6
f 309/4/6 306/4/6 310/4/6
f 310/2/6 302/2/6 311/2/6
f 310/1/6 311/1/6 314/1/6
f 312/2/6 313/2/6 315/2/6
f 314/1/6 311/1/6 315/1/6
f 311/2/6 312/2/6 315/2/6
f 315/2/6 313/2/6 316/2/6
f 317/4/6 318/4/6 319/4/6
f 319/4/6 318/4/6 320/4/6
f 321/4/6 322/4/6 323/4/6
f 323/4/6 322/4/6 324/4/6
f 325/2/6 326/2/6 327/2/6
f 327/2/6 326/2/6 328/2/6
f 328/2/6 326/2/6 329/2/6
f 327/3/6 328/3/6 330/3/6
f 329/2/6 326/2/6 331/2/6
f 327/3/6 330/3/6 332/3/6
f 332/3/6 330/3/6 333/3/6
f 332/1/6 333/1/6 334/1/6
f 334/1/6 333/1/6 335/1/6
f 331/2/6 326/2/6 336/2/6
f 336/2/6 326/2/6 337/2/6
f 334/2/6 335/2/6 338/2/6
f 335/2/6 336/2/6 338/2/6
f 336/1/6 337/1/6 339/1/6
f 338/2/6 336/2/6 339/2/6
f 339/1/6 337/1/6 340/1/6
f 341/2/6 342/2/6 343/2/6
f 343/2/6 342/2/6 344/2/6
f 344/2/6 342/2/6 345/2/6
f 345/2/6 342/2/6 346/2/6
f 341/2/6 343/2/6 347/2/6
f 341/2/6 347/2/6 350/2/6
f 348/2/6 349/2/6 350/2/6
f 347/2/6 348/2/6 350/2/6
f 350/2/6 349/2/6 351/2/6
f 352/1/6 353/1/6 354/1/6
f 354/1/6 353/1/6 355/1/6
f 356/1/6 357/1/6 359/1/6
f 357/3/6 358/3/6 360/3/6
f 359/1/6 357/1/6 360/1/6
f 359/3/6 360/3/6 361/3/6
f 361/3/6 360/3/6 362/3/6
f 361/2/6 362/2/6 363/2/6
f 362/3/6 360/3/6 364/3/6
f 363/2/6 362/2/6 364/2/6
f 360/3/6 358/3/6 365/3/6
f 364/3/6 360/3/6 365/3/6
