# MagicaVoxel @ Ephtracy

# group
g cave_04

# material
mtllib cave_04.mtl
usemtl palette

# normals
vn -1 0 0
vn 1 0 0
vn 0 0 1
vn 0 0 -1
vn 0 -1 0
vn 0 1 0

# texcoords
vt 0.912109 0.5
vt 0.916016 0.5
vt 0.919922 0.5

# verts
v -25 0 28
v -25 0 -31
v -25 4 29
v -25 4 28
v -25 8 30
v -25 8 29
v -25 13 31
v -25 13 30
v -25 13 -31
v -25 16 31
v -25 16 -31
v -23 12 31
v -23 12 30
v -23 13 31
v -23 13 30
v -23 14 11
v -23 14 9
v -23 15 11
v -23 15 9
v -22 11 31
v -22 11 30
v -22 12 31
v -22 12 30
v -17 4 29
v -17 4 28
v -17 6 29
v -17 6 28
v -16 13 31
v -16 13 30
v -16 14 31
v -16 14 30
v -14 8 30
v -14 8 29
v -14 9 30
v -14 9 29
v -10 12 29
v -10 12 28
v -10 13 29
v -10 13 28
v -7 8 29
v -7 8 28
v -7 12 29
v -7 12 28
v -7 13 31
v -7 13 30
v -7 14 31
v -7 14 30
v -6 4 29
v -6 4 28
v -6 6 29
v -6 6 28
v -6 10 31
v -6 10 30
v -6 11 31
v -6 11 30
v -6 13 31
v -6 13 30
v -4 2 31
v -4 2 29
v -4 4 29
v -4 8 30
v -4 8 29
v -4 10 31
v -4 10 30
v 6 9 30
v 6 9 29
v 6 11 30
v 6 11 29
v 7 8 30
v 7 8 29
v 7 9 30
v 7 9 29
v 7 12 29
v 7 12 28
v 7 13 29
v 7 13 28
v 11 13 31
v 11 13 30
v 11 14 31
v 11 14 30
v 13 6 29
v 13 6 28
v 13 7 29
v 13 7 28
v 14 4 29
v 14 4 28
v 14 6 29
v 14 6 28
v 15 10 31
v 15 10 30
v 15 13 31
v 15 13 30
v 16 3 31
v 16 3 29
v 16 4 29
v 16 8 31
v 16 8 30
v 16 8 29
v 16 9 31
v 16 9 30
v 16 10 31
v 16 10 30
v -24 14 11
v -24 14 9
v -24 15 11
v -24 15 9
v -20 4 29
v -20 4 28
v -20 6 29
v -20 6 28
v -20 11 31
v -20 11 30
v -20 12 31
v -20 12 30
v -19 12 31
v -19 12 30
v -19 13 31
v -19 13 30
v -18 13 31
v -18 13 30
v -18 14 31
v -18 14 30
v -17 8 30
v -17 8 29
v -17 9 30
v -17 9 29
v -11 4 29
v -11 4 28
v -11 6 29
v -11 6 28
v -11 12 29
v -11 12 28
v -11 13 29
v -11 13 28
v -8 8 29
v -8 8 28
v -8 12 29
v -8 12 28
v -8 13 31
v -8 13 30
v -8 14 31
v -8 14 30
v -2 2 31
v -2 2 30
v -2 2 29
v -2 4 29
v -2 5 31
v -2 5 30
v -2 6 31
v -2 6 30
v -2 7 31
v -2 7 30
v -2 8 30
v -2 8 29
v -2 13 31
v -2 13 30
v 3 8 30
v 3 8 29
v 3 9 30
v 3 9 29
v 4 9 30
v 4 9 29
v 4 11 30
v 4 11 29
v 6 12 29
v 6 12 28
v 6 13 29
v 6 13 28
v 10 4 29
v 10 4 28
v 10 6 29
v 10 6 28
v 10 13 31
v 10 13 30
v 10 14 31
v 10 14 30
v 11 6 29
v 11 6 28
v 11 7 29
v 11 7 28
v 17 3 31
v 17 3 29
v 17 4 29
v 17 7 31
v 17 7 29
v 19 7 31
v 19 7 29
v 19 8 31
v 19 8 30
v 19 8 29
v 19 10 31
v 19 10 30
v 19 13 31
v 19 13 30
v 25 0 28
v 25 0 -31
v 25 4 29
v 25 4 28
v 25 8 30
v 25 8 29
v 25 13 31
v 25 13 30
v 25 13 -31
v 25 15 20
v 25 15 16
v 25 15 15
v 25 15 13
v 25 15 12
v 25 15 10
v 25 15 6
v 25 15 5
v 25 15 -6
v 25 15 -10
v 25 15 -14
v 25 15 -16
v 25 15 -20
v 25 15 -22
v 25 16 31
v 25 16 20
v 25 16 16
v 25 16 15
v 25 16 13
v 25 16 12
v 25 16 10
v 25 16 6
v 25 16 5
v 25 16 -6
v 25 16 -10
v 25 16 -14
v 25 16 -16
v 25 16 -20
v 25 16 -22
v 25 16 -31
v -25 13 31
v -25 16 31
v -23 12 31
v -23 13 31
v -23 14 31
v -23 15 31
v -22 11 31
v -22 12 31
v -22 14 31
v -21 14 31
v -21 15 31
v -20 11 31
v -20 12 31
v -20 13 31
v -20 14 31
v -20 15 31
v -19 12 31
v -19 13 31
v -19 14 31
v -18 13 31
v -18 14 31
v -17 14 31
v -17 15 31
v -16 13 31
v -16 14 31
v -13 13 31
v -13 15 31
v -12 14 31
v -12 15 31
v -11 13 31
v -11 14 31
v -8 13 31
v -8 14 31
v -7 13 31
v -7 14 31
v -7 15 31
v -7 16 31
v -6 10 31
v -6 11 31
v -6 13 31
v -6 14 31
v -6 15 31
v -5 13 31
v -5 14 31
v -4 2 31
v -4 10 31
v -4 11 31
v -4 12 31
v -3 2 31
v -3 5 31
v -3 6 31
v -3 7 31
v -3 12 31
v -3 16 31
v -2 2 31
v -2 5 31
v -2 6 31
v -2 7 31
v -2 13 31
v 4 14 31
v 4 15 31
v 5 14 31
v 5 15 31
v 8 14 31
v 8 15 31
v 9 14 31
v 9 15 31
v 10 13 31
v 10 14 31
v 11 13 31
v 11 14 31
v 13 13 31
v 13 15 31
v 14 13 31
v 14 15 31
v 15 10 31
v 15 13 31
v 16 3 31
v 16 8 31
v 16 9 31
v 16 10 31
v 16 14 31
v 17 3 31
v 17 7 31
v 17 9 31
v 17 10 31
v 17 12 31
v 17 14 31
v 18 10 31
v 18 12 31
v 19 7 31
v 19 8 31
v 19 10 31
v 19 13 31
v 25 13 31
v 25 16 31
v -25 8 30
v -25 13 30
v -23 12 30
v -23 13 30
v -22 11 30
v -22 12 30
v -20 11 30
v -20 12 30
v -19 12 30
v -19 13 30
v -18 13 30
v -18 14 30
v -17 8 30
v -17 9 30
v -17 14 30
v -16 13 30
v -16 14 30
v -14 8 30
v -14 9 30
v -13 13 30
v -11 13 30
v -8 13 30
v -8 14 30
v -7 13 30
v -7 14 30
v -6 10 30
v -6 11 30
v -6 13 30
v -4 8 30
v -4 10 30
v -2 8 30
v -2 13 30
v 3 8 30
v 3 9 30
v 4 9 30
v 4 11 30
v 6 9 30
v 6 11 30
v 7 8 30
v 7 9 30
v 10 13 30
v 10 14 30
v 11 13 30
v 11 14 30
v 13 13 30
v 14 13 30
v 15 10 30
v 15 13 30
v 16 8 30
v 16 9 30
v 16 10 30
v 19 8 30
v 19 10 30
v 19 13 30
v 25 8 30
v 25 13 30
v -25 4 29
v -25 8 29
v -20 4 29
v -20 6 29
v -17 4 29
v -17 6 29
v -17 8 29
v -17 9 29
v -14 8 29
v -14 9 29
v -11 4 29
v -11 6 29
v -6 4 29
v -6 6 29
v -4 4 29
v -4 8 29
v -2 4 29
v -2 8 29
v 3 8 29
v 3 9 29
v 4 9 29
v 4 11 29
v 6 9 29
v 6 11 29
v 7 8 29
v 7 9 29
v 10 4 29
v 10 6 29
v 11 6 29
v 11 7 29
v 13 6 29
v 13 7 29
v 14 4 29
v 14 6 29
v 16 4 29
v 16 8 29
v 17 4 29
v 17 7 29
v 19 7 29
v 19 8 29
v 25 4 29
v 25 8 29
v -25 0 28
v -25 4 28
v -20 4 28
v -20 6 28
v -17 4 28
v -17 6 28
v -11 4 28
v -11 6 28
v -11 12 28
v -11 13 28
v -10 12 28
v -10 13 28
v -8 8 28
v -8 12 28
v -7 8 28
v -7 12 28
v -6 4 28
v -6 6 28
v 6 12 28
v 6 13 28
v 7 12 28
v 7 13 28
v 10 4 28
v 10 6 28
v 11 6 28
v 11 7 28
v 13 6 28
v 13 7 28
v 14 4 28
v 14 6 28
v 25 0 28
v 25 4 28
v -24 14 9
v -24 15 9
v -23 14 9
v -23 15 9
v -11 12 29
v -11 13 29
v -10 12 29
v -10 13 29
v -8 8 29
v -8 12 29
v -7 8 29
v -7 12 29
v -4 2 29
v -4 4 29
v -2 2 29
v -2 4 29
v 6 12 29
v 6 13 29
v 7 12 29
v 7 13 29
v 16 3 29
v 16 4 29
v 17 3 29
v 17 4 29
v -24 14 11
v -24 15 11
v -23 14 11
v -23 15 11
v -25 0 -31
v -25 13 -31
v -25 16 -31
v 25 0 -31
v 25 13 -31
v 25 16 -31
v -25 0 28
v 25 0 28
v -25 0 -31
v 25 0 -31
v -4 2 31
v -3 2 31
v -2 2 31
v -3 2 30
v -2 2 30
v -4 2 29
v -2 2 29
v 16 3 31
v 17 3 31
v 16 3 29
v 17 3 29
v -25 4 29
v -20 4 29
v -17 4 29
v -11 4 29
v -6 4 29
v -4 4 29
v -2 4 29
v 10 4 29
v 14 4 29
v 16 4 29
v 17 4 29
v 25 4 29
v -25 4 28
v -20 4 28
v -17 4 28
v -11 4 28
v -6 4 28
v 10 4 28
v 14 4 28
v 25 4 28
v -20 6 29
v -17 6 29
v -11 6 29
v -6 6 29
v 10 6 29
v 11 6 29
v 13 6 29
v 14 6 29
v -20 6 28
v -17 6 28
v -11 6 28
v -6 6 28
v 10 6 28
v 11 6 28
v 13 6 28
v 14 6 28
v 17 7 31
v 19 7 31
v 11 7 29
v 13 7 29
v 17 7 29
v 19 7 29
v 11 7 28
v 13 7 28
v -25 8 30
v -17 8 30
v -14 8 30
v -4 8 30
v -2 8 30
v 3 8 30
v 7 8 30
v 16 8 30
v 19 8 30
v 25 8 30
v -25 8 29
v -17 8 29
v -14 8 29
v -4 8 29
v -2 8 29
v 3 8 29
v 7 8 29
v 16 8 29
v 19 8 29
v 25 8 29
v -17 9 30
v -14 9 30
v 3 9 30
v 4 9 30
v 6 9 30
v 7 9 30
v -17 9 29
v -14 9 29
v 3 9 29
v 4 9 29
v 6 9 29
v 7 9 29
v -6 10 31
v -4 10 31
v 15 10 31
v 16 10 31
v -6 10 30
v -4 10 30
v 15 10 30
v 16 10 30
v -22 11 31
v -20 11 31
v -22 11 30
v -20 11 30
v 4 11 30
v 6 11 30
v 4 11 29
v 6 11 29
v -23 12 31
v -22 12 31
v -20 12 31
v -19 12 31
v -23 12 30
v -22 12 30
v -20 12 30
v -19 12 30
v -8 12 29
v -7 12 29
v -8 12 28
v -7 12 28
v -25 13 31
v -23 13 31
v -19 13 31
v -18 13 31
v -16 13 31
v -13 13 31
v -11 13 31
v -8 13 31
v -7 13 31
v -6 13 31
v -2 13 31
v 10 13 31
v 11 13 31
v 13 13 31
v 14 13 31
v 15 13 31
v 19 13 31
v 25 13 31
v -25 13 30
v -23 13 30
v -19 13 30
v -18 13 30
v -16 13 30
v -13 13 30
v -11 13 30
v -8 13 30
v -7 13 30
v -6 13 30
v -2 13 30
v 10 13 30
v 11 13 30
v 13 13 30
v 14 13 30
v 15 13 30
v 19 13 30
v 25 13 30
v -11 13 29
v -10 13 29
v 6 13 29
v 7 13 29
v -11 13 28
v -10 13 28
v 6 13 28
v 7 13 28
v -18 14 31
v -17 14 31
v -16 14 31
v -8 14 31
v -7 14 31
v 10 14 31
v 11 14 31
v -18 14 30
v -17 14 30
v -16 14 30
v -8 14 30
v -7 14 30
v 10 14 30
v 11 14 30
v -24 15 11
v -23 15 11
v -24 15 9
v -23 15 9
v -8 8 29
v -7 8 29
v -8 8 28
v -7 8 28
v -11 12 29
v -10 12 29
v 6 12 29
v 7 12 29
v -11 12 28
v -10 12 28
v 6 12 28
v 7 12 28
v -24 14 11
v -23 14 11
v -24 14 9
v -23 14 9
v -25 16 31
v -7 16 31
v -3 16 31
v 25 16 31
v -7 16 30
v -3 16 30
v 9 16 26
v 10 16 26
v 1 16 25
v 3 16 25
v 8 16 25
v 9 16 25
v 10 16 25
v 1 16 24
v 2 16 24
v 3 16 24
v 8 16 24
v 2 16 23
v 3 16 23
v 4 16 23
v 6 16 23
v 8 16 23
v 9 16 23
v 19 16 23
v 22 16 23
v 3 16 22
v 4 16 22
v 6 16 22
v 7 16 22
v 18 16 22
v 19 16 22
v 20 16 22
v 22 16 22
v 24 16 22
v 7 16 21
v 8 16 21
v 18 16 21
v 19 16 21
v 20 16 21
v 22 16 21
v 21 16 20
v 22 16 20
v 24 16 20
v 25 16 20
v -18 16 19
v -16 16 19
v -11 16 19
v -10 16 19
v -8 16 19
v -7 16 19
v -6 16 19
v -5 16 19
v 20 16 19
v 21 16 19
v -18 16 18
v -16 16 18
v -15 16 18
v -14 16 18
v -13 16 18
v -12 16 18
v -11 16 18
v -10 16 18
v -14 16 17
v -13 16 17
v -12 16 17
v -11 16 17
v -10 16 17
v -8 16 17
v -6 16 17
v -5 16 17
v -3 16 17
v -2 16 17
v -15 16 16
v -10 16 16
v -8 16 16
v -7 16 16
v -5 16 16
v -4 16 16
v 18 16 16
v 19 16 16
v 24 16 16
v 25 16 16
v -18 16 15
v -17 16 15
v -9 16 15
v -8 16 15
v -7 16 15
v -5 16 15
v -3 16 15
v -2 16 15
v 18 16 15
v 19 16 15
v 21 16 15
v 23 16 15
v 24 16 15
v 25 16 15
v -18 16 14
v -17 16 14
v -16 16 14
v -15 16 14
v -12 16 14
v -10 16 14
v -9 16 14
v -4 16 14
v -3 16 14
v -1 16 14
v 4 16 14
v 5 16 14
v 6 16 14
v 18 16 14
v 19 16 14
v 21 16 14
v 22 16 14
v -18 16 13
v -17 16 13
v -12 16 13
v -10 16 13
v -7 16 13
v -6 16 13
v -4 16 13
v -3 16 13
v -2 16 13
v -1 16 13
v 2 16 13
v 4 16 13
v 5 16 13
v 21 16 13
v 22 16 13
v 23 16 13
v 25 16 13
v -15 16 12
v -14 16 12
v 1 16 12
v 2 16 12
v 5 16 12
v 6 16 12
v 9 16 12
v 13 16 12
v 19 16 12
v 21 16 12
v 24 16 12
v 25 16 12
v -18 16 11
v -16 16 11
v -15 16 11
v -14 16 11
v -11 16 11
v -10 16 11
v -9 16 11
v -6 16 11
v -3 16 11
v -2 16 11
v -1 16 11
v 1 16 11
v 11 16 11
v 13 16 11
v 21 16 11
v 22 16 11
v -16 16 10
v -15 16 10
v -14 16 10
v -11 16 10
v -10 16 10
v -9 16 10
v -5 16 10
v -4 16 10
v -1 16 10
v 0 16 10
v 4 16 10
v 5 16 10
v 9 16 10
v 11 16 10
v 13 16 10
v 18 16 10
v 19 16 10
v 21 16 10
v 22 16 10
v 24 16 10
v 25 16 10
v -14 16 9
v -13 16 9
v -9 16 9
v -7 16 9
v -4 16 9
v -3 16 9
v 8 16 9
v 9 16 9
v -15 16 8
v -13 16 8
v -12 16 8
v -11 16 8
v -7 16 8
v -5 16 8
v -4 16 8
v -3 16 8
v 1 16 8
v 3 16 8
v 7 16 8
v 8 16 8
v 9 16 8
v 12 16 8
v -13 16 7
v -12 16 7
v -9 16 7
v -8 16 7
v 0 16 7
v 1 16 7
v 2 16 7
v 12 16 7
v 13 16 7
v -17 16 6
v -16 16 6
v -11 16 6
v -10 16 6
v -8 16 6
v -6 16 6
v 0 16 6
v 1 16 6
v 2 16 6
v 3 16 6
v 8 16 6
v 9 16 6
v 23 16 6
v 25 16 6
v -17 16 5
v -16 16 5
v -14 16 5
v -13 16 5
v -10 16 5
v -8 16 5
v -6 16 5
v -5 16 5
v 1 16 5
v 3 16 5
v 8 16 5
v 9 16 5
v 24 16 5
v 25 16 5
v -14 16 4
v -13 16 4
v -8 16 4
v -7 16 4
v -5 16 4
v -4 16 4
v 0 16 4
v 1 16 4
v 3 16 4
v 4 16 4
v 5 16 4
v 7 16 4
v 23 16 4
v 24 16 4
v -15 16 3
v -13 16 3
v -7 16 3
v -4 16 3
v 17 16 2
v 20 16 2
v 15 16 1
v 17 16 1
v 14 16 -0
v 15 16 -0
v 19 16 -0
v 20 16 -0
v 10 16 -1
v 11 16 -1
v 13 16 -1
v 14 16 -1
v 15 16 -1
v 16 16 -1
v 18 16 -1
v 19 16 -1
v 12 16 -2
v 13 16 -2
v 15 16 -2
v 16 16 -2
v 11 16 -3
v 12 16 -3
v 13 16 -3
v 14 16 -3
v 16 16 -3
v 18 16 -3
v -13 16 -4
v -12 16 -4
v -3 16 -4
v -2 16 -4
v 0 16 -4
v 2 16 -4
v 10 16 -4
v 11 16 -4
v 13 16 -4
v 14 16 -4
v 17 16 -4
v 18 16 -4
v -14 16 -5
v -13 16 -5
v -12 16 -5
v -5 16 -5
v -4 16 -5
v 3 16 -5
v 4 16 -5
v 5 16 -5
v 6 16 -5
v 21 16 -5
v 22 16 -5
v -18 16 -6
v -17 16 -6
v -15 16 -6
v -14 16 -6
v -13 16 -6
v -12 16 -6
v -11 16 -6
v -10 16 -6
v -3 16 -6
v -2 16 -6
v 2 16 -6
v 3 16 -6
v 16 16 -6
v 17 16 -6
v 23 16 -6
v 25 16 -6
v -12 16 -7
v -11 16 -7
v -10 16 -7
v -9 16 -7
v -4 16 -7
v -3 16 -7
v 1 16 -7
v 4 16 -7
v 5 16 -7
v 6 16 -7
v 22 16 -7
v 23 16 -7
v -17 16 -8
v -16 16 -8
v -13 16 -8
v -12 16 -8
v -11 16 -8
v -10 16 -8
v -4 16 -8
v -3 16 -8
v -1 16 -8
v 0 16 -8
v 1 16 -8
v 3 16 -8
v 16 16 -8
v 17 16 -8
v -18 16 -9
v -16 16 -9
v -15 16 -9
v -14 16 -9
v -13 16 -9
v -12 16 -9
v -10 16 -9
v -9 16 -9
v -5 16 -9
v -4 16 -9
v -1 16 -9
v 0 16 -9
v 21 16 -9
v 22 16 -9
v -18 16 -10
v -17 16 -10
v -15 16 -10
v -14 16 -10
v -5 16 -10
v -4 16 -10
v -1 16 -10
v 0 16 -10
v 2 16 -10
v 3 16 -10
v 4 16 -10
v 5 16 -10
v 6 16 -10
v 11 16 -10
v 13 16 -10
v 24 16 -10
v 25 16 -10
v -18 16 -11
v -17 16 -11
v -16 16 -11
v -15 16 -11
v -11 16 -11
v -10 16 -11
v -1 16 -11
v 0 16 -11
v 2 16 -11
v 3 16 -11
v 5 16 -11
v 6 16 -11
v 22 16 -11
v 24 16 -11
v -5 16 -12
v -4 16 -12
v 3 16 -12
v 4 16 -12
v 21 16 -12
v 22 16 -12
v -16 16 -13
v -15 16 -13
v -12 16 -13
v -11 16 -13
v -5 16 -13
v -2 16 -13
v 12 16 -13
v 13 16 -13
v 14 16 -13
v 15 16 -13
v 16 16 -13
v 17 16 -13
v 18 16 -13
v 21 16 -13
v 22 16 -13
v 23 16 -13
v 24 16 -13
v -14 16 -14
v -13 16 -14
v -4 16 -14
v -2 16 -14
v 2 16 -14
v 3 16 -14
v 5 16 -14
v 6 16 -14
v 13 16 -14
v 14 16 -14
v 24 16 -14
v 25 16 -14
v -16 16 -15
v -15 16 -15
v -14 16 -15
v -13 16 -15
v -12 16 -15
v -11 16 -15
v -10 16 -15
v -4 16 -15
v -1 16 -15
v 4 16 -15
v 5 16 -15
v 6 16 -15
v 12 16 -15
v 13 16 -15
v 15 16 -15
v 16 16 -15
v 21 16 -15
v 22 16 -15
v 23 16 -15
v 24 16 -15
v -15 16 -16
v -14 16 -16
v -13 16 -16
v -12 16 -16
v 0 16 -16
v 1 16 -16
v 2 16 -16
v 3 16 -16
v 4 16 -16
v 5 16 -16
v 6 16 -16
v 21 16 -16
v 22 16 -16
v 24 16 -16
v 25 16 -16
v -14 16 -17
v -13 16 -17
v -10 16 -17
v -8 16 -17
v -5 16 -17
v -3 16 -17
v 3 16 -17
v 4 16 -17
v 22 16 -17
v 23 16 -17
v -13 16 -18
v -12 16 -18
v -10 16 -18
v -8 16 -18
v -3 16 -18
v -1 16 -18
v 0 16 -18
v 1 16 -18
v 4 16 -18
v 6 16 -18
v 16 16 -18
v 17 16 -18
v 21 16 -18
v 22 16 -18
v 23 16 -18
v 24 16 -18
v 21 16 -19
v 22 16 -19
v -9 16 -20
v -7 16 -20
v -4 16 -20
v -3 16 -20
v -1 16 -20
v 0 16 -20
v 24 16 -20
v 25 16 -20
v -10 16 -21
v -9 16 -21
v -8 16 -21
v -7 16 -21
v -4 16 -21
v -3 16 -21
v 22 16 -21
v 23 16 -21
v -9 16 -22
v -8 16 -22
v 23 16 -22
v 25 16 -22
v -10 16 -23
v -9 16 -23
v 21 16 -23
v 22 16 -23
v 21 16 -24
v 22 16 -24
v -25 16 -31
v 25 16 -31

# faces
f 4/2/1 2/2/1 1/2/1
f 6/2/1 4/2/1 3/2/1
f 8/2/1 6/2/1 5/2/1
f 9/2/1 2/2/1 4/2/1
f 9/2/1 4/2/1 6/2/1
f 9/2/1 6/2/1 8/2/1
f 10/1/1 8/1/1 7/1/1
f 10/1/1 9/1/1 8/1/1
f 11/1/1 9/1/1 10/1/1
f 14/1/1 13/1/1 12/1/1
f 15/1/1 13/1/1 14/1/1
f 18/1/1 17/1/1 16/1/1
f 19/1/1 17/1/1 18/1/1
f 22/1/1 21/1/1 20/1/1
f 23/1/1 21/1/1 22/1/1
f 26/2/1 25/2/1 24/2/1
f 27/2/1 25/2/1 26/2/1
f 30/1/1 29/1/1 28/1/1
f 31/1/1 29/1/1 30/1/1
f 34/2/1 33/2/1 32/2/1
f 35/2/1 33/2/1 34/2/1
f 38/2/1 37/2/1 36/2/1
f 39/2/1 37/2/1 38/2/1
f 42/2/1 41/2/1 40/2/1
f 43/2/1 41/2/1 42/2/1
f 46/1/1 45/1/1 44/1/1
f 47/1/1 45/1/1 46/1/1
f 50/2/1 49/2/1 48/2/1
f 51/2/1 49/2/1 50/2/1
f 54/1/1 53/1/1 52/1/1
f 55/1/1 53/1/1 54/1/1
f 56/3/1 55/3/1 54/3/1
f 57/3/1 55/3/1 56/3/1
f 60/1/1 59/1/1 58/1/1
f 61/1/1 60/1/1 58/1/1
f 62/1/1 60/1/1 61/1/1
f 63/1/1 61/1/1 58/1/1
f 64/1/1 61/1/1 63/1/1
f 67/2/1 66/2/1 65/2/1
f 68/2/1 66/2/1 67/2/1
f 71/2/1 70/2/1 69/2/1
f 72/2/1 70/2/1 71/2/1
f 75/2/1 74/2/1 73/2/1
f 76/2/1 74/2/1 75/2/1
f 79/1/1 78/1/1 77/1/1
f 80/1/1 78/1/1 79/1/1
f 83/2/1 82/2/1 81/2/1
f 84/2/1 82/2/1 83/2/1
f 87/2/1 86/2/1 85/2/1
f 88/2/1 86/2/1 87/2/1
f 91/1/1 90/1/1 89/1/1
f 92/1/1 90/1/1 91/1/1
f 95/1/1 94/1/1 93/1/1
f 96/1/1 95/1/1 93/1/1
f 97/1/1 95/1/1 96/1/1
f 98/1/1 95/1/1 97/1/1
f 99/3/1 97/3/1 96/3/1
f 100/3/1 97/3/1 99/3/1
f 101/1/1 100/1/1 99/1/1
f 102/1/1 100/1/1 101/1/1
f 103/1/2 104/1/2 105/1/2
f 105/1/2 104/1/2 106/1/2
f 107/2/2 108/2/2 109/2/2
f 109/2/2 108/2/2 110/2/2
f 111/1/2 112/1/2 113/1/2
f 113/1/2 112/1/2 114/1/2
f 115/1/2 116/1/2 117/1/2
f 117/1/2 116/1/2 118/1/2
f 119/1/2 120/1/2 121/1/2
f 121/1/2 120/1/2 122/1/2
f 123/2/2 124/2/2 125/2/2
f 125/2/2 124/2/2 126/2/2
f 127/2/2 128/2/2 129/2/2
f 129/2/2 128/2/2 130/2/2
f 131/2/2 132/2/2 133/2/2
f 133/2/2 132/2/2 134/2/2
f 135/2/2 136/2/2 137/2/2
f 137/2/2 136/2/2 138/2/2
f 139/1/2 140/1/2 141/1/2
f 141/1/2 140/1/2 142/1/2
f 144/1/2 145/1/2 146/1/2
f 143/3/2 144/3/2 147/3/2
f 144/1/2 146/1/2 148/1/2
f 147/3/2 144/3/2 148/3/2
f 147/1/2 148/1/2 149/1/2
f 148/1/2 146/1/2 150/1/2
f 149/1/2 148/1/2 150/1/2
f 149/3/2 150/3/2 151/3/2
f 150/1/2 146/1/2 152/1/2
f 151/3/2 150/3/2 152/3/2
f 151/1/2 152/1/2 153/1/2
f 152/1/2 146/1/2 153/1/2
f 153/1/2 146/1/2 154/1/2
f 151/1/2 153/1/2 155/1/2
f 155/1/2 153/1/2 156/1/2
f 157/2/2 158/2/2 159/2/2
f 159/2/2 158/2/2 160/2/2
f 161/2/2 162/2/2 163/2/2
f 163/2/2 162/2/2 164/2/2
f 165/2/2 166/2/2 167/2/2
f 167/2/2 166/2/2 168/2/2
f 169/2/2 170/2/2 171/2/2
f 171/2/2 170/2/2 172/2/2
f 173/1/2 174/1/2 175/1/2
f 175/1/2 174/1/2 176/1/2
f 177/2/2 178/2/2 179/2/2
f 179/2/2 178/2/2 180/2/2
f 181/1/2 182/1/2 183/1/2
f 181/1/2 183/1/2 184/1/2
f 184/1/2 183/1/2 185/1/2
f 186/1/2 187/1/2 188/1/2
f 188/1/2 187/1/2 189/1/2
f 189/1/2 187/1/2 190/1/2
f 188/3/2 189/3/2 191/3/2
f 191/3/2 189/3/2 192/3/2
f 191/1/2 192/1/2 193/1/2
f 193/1/2 192/1/2 194/1/2
f 195/2/2 196/2/2 198/2/2
f 197/2/2 198/2/2 200/2/2
f 199/2/2 200/2/2 202/2/2
f 198/2/2 196/2/2 203/2/2
f 200/2/2 198/2/2 203/2/2
f 202/2/2 200/2/2 203/2/2
f 201/1/2 202/1/2 204/1/2
f 202/1/2 203/1/2 204/1/2
f 204/1/2 203/1/2 205/1/2
f 205/1/2 203/1/2 206/1/2
f 206/1/2 203/1/2 207/1/2
f 207/1/2 203/1/2 208/1/2
f 208/1/2 203/1/2 209/1/2
f 209/1/2 203/1/2 210/1/2
f 210/1/2 203/1/2 211/1/2
f 211/1/2 203/1/2 212/1/2
f 212/1/2 203/1/2 213/1/2
f 213/1/2 203/1/2 214/1/2
f 214/1/2 203/1/2 215/1/2
f 215/1/2 203/1/2 216/1/2
f 216/1/2 203/1/2 217/1/2
f 201/1/2 204/1/2 218/1/2
f 204/3/2 205/3/2 219/3/2
f 218/1/2 204/1/2 219/1/2
f 205/1/2 206/1/2 220/1/2
f 219/3/2 205/3/2 220/3/2
f 206/3/2 207/3/2 221/3/2
f 220/1/2 206/1/2 221/1/2
f 207/1/2 208/1/2 222/1/2
f 221/3/2 207/3/2 222/3/2
f 208/3/2 209/3/2 223/3/2
f 222/1/2 208/1/2 223/1/2
f 209/1/2 210/1/2 224/1/2
f 223/3/2 209/3/2 224/3/2
f 210/2/2 211/2/2 225/2/2
f 224/1/2 210/1/2 225/1/2
f 211/1/2 212/1/2 226/1/2
f 225/2/2 211/2/2 226/2/2
f 212/3/2 213/3/2 227/3/2
f 226/1/2 212/1/2 227/1/2
f 213/1/2 214/1/2 228/1/2
f 227/3/2 213/3/2 228/3/2
f 214/3/2 215/3/2 229/3/2
f 228/1/2 214/1/2 229/1/2
f 215/1/2 216/1/2 230/1/2
f 229/3/2 215/3/2 230/3/2
f 216/3/2 217/3/2 231/3/2
f 230/1/2 216/1/2 231/1/2
f 217/1/2 203/1/2 232/1/2
f 231/3/2 217/3/2 232/3/2
f 232/1/2 203/1/2 233/1/2
f 237/1/3 235/1/3 234/1/3
f 238/1/3 235/1/3 237/1/3
f 239/1/3 235/1/3 238/1/3
f 241/1/3 237/1/3 236/1/3
f 241/1/3 238/1/3 237/1/3
f 242/3/3 239/3/3 238/3/3
f 242/1/3 238/1/3 241/1/3
f 243/3/3 242/3/3 241/3/3
f 243/3/3 239/3/3 242/3/3
f 244/1/3 235/1/3 239/1/3
f 244/3/3 239/3/3 243/3/3
f 245/1/3 241/1/3 240/1/3
f 246/3/3 243/3/3 241/3/3
f 246/1/3 241/1/3 245/1/3
f 247/3/3 243/3/3 246/3/3
f 248/1/3 244/1/3 243/1/3
f 248/3/3 243/3/3 247/3/3
f 249/1/3 235/1/3 244/1/3
f 249/1/3 244/1/3 248/1/3
f 250/1/3 247/1/3 246/1/3
f 251/3/3 248/3/3 247/3/3
f 251/1/3 247/1/3 250/1/3
f 251/3/3 249/3/3 248/3/3
f 252/3/3 249/3/3 251/3/3
f 253/1/3 252/1/3 251/1/3
f 254/3/3 249/3/3 252/3/3
f 254/1/3 252/1/3 253/1/3
f 255/3/3 249/3/3 254/3/3
f 256/1/3 235/1/3 249/1/3
f 256/3/3 249/3/3 255/3/3
f 258/1/3 256/1/3 255/1/3
f 259/1/3 258/1/3 257/1/3
f 260/1/3 235/1/3 256/1/3
f 260/1/3 258/1/3 259/1/3
f 260/1/3 256/1/3 258/1/3
f 261/3/3 260/3/3 259/3/3
f 262/1/3 235/1/3 260/1/3
f 262/3/3 260/3/3 261/3/3
f 263/3/3 261/3/3 259/3/3
f 264/1/3 262/1/3 261/1/3
f 264/3/3 261/3/3 263/3/3
f 265/1/3 264/1/3 263/1/3
f 266/1/3 262/1/3 264/1/3
f 266/1/3 264/1/3 265/1/3
f 268/1/3 262/1/3 266/1/3
f 269/1/3 235/1/3 262/1/3
f 269/1/3 262/1/3 268/1/3
f 270/1/3 235/1/3 269/1/3
f 273/1/3 268/1/3 267/1/3
f 273/1/3 269/1/3 268/1/3
f 274/1/3 269/1/3 273/1/3
f 275/3/3 270/3/3 269/3/3
f 275/1/3 269/1/3 274/1/3
f 276/1/3 274/1/3 273/1/3
f 276/3/3 273/3/3 272/3/3
f 277/3/3 275/3/3 274/3/3
f 277/1/3 274/1/3 276/1/3
f 279/1/3 272/1/3 271/1/3
f 280/3/3 276/3/3 272/3/3
f 280/3/3 277/3/3 276/3/3
f 280/1/3 272/1/3 279/1/3
f 281/3/3 277/3/3 280/3/3
f 282/1/3 279/1/3 278/1/3
f 282/1/3 280/1/3 279/1/3
f 282/1/3 281/1/3 280/1/3
f 283/1/3 281/1/3 282/1/3
f 284/1/3 281/1/3 283/1/3
f 285/1/3 281/1/3 284/1/3
f 286/3/3 277/3/3 281/3/3
f 286/1/3 281/1/3 285/1/3
f 287/3/3 275/3/3 277/3/3
f 287/3/3 277/3/3 286/3/3
f 287/3/3 270/3/3 275/3/3
f 288/3/3 283/3/3 282/3/3
f 289/1/3 284/1/3 283/1/3
f 289/3/3 283/3/3 288/3/3
f 290/3/3 285/3/3 284/3/3
f 290/1/3 284/1/3 289/1/3
f 291/1/3 286/1/3 285/1/3
f 291/3/3 285/3/3 290/3/3
f 291/1/3 287/1/3 286/1/3
f 292/1/3 287/1/3 291/1/3
f 293/1/3 287/1/3 292/1/3
f 294/1/3 287/1/3 293/1/3
f 295/1/3 293/1/3 292/1/3
f 295/3/3 294/3/3 293/3/3
f 296/1/3 287/1/3 294/1/3
f 296/3/3 294/3/3 295/3/3
f 297/1/3 295/1/3 292/1/3
f 297/1/3 296/1/3 295/1/3
f 298/1/3 287/1/3 296/1/3
f 298/1/3 296/1/3 297/1/3
f 299/1/3 297/1/3 292/1/3
f 299/3/3 298/3/3 297/3/3
f 300/1/3 287/1/3 298/1/3
f 300/3/3 298/3/3 299/3/3
f 301/1/3 299/1/3 292/1/3
f 301/1/3 300/1/3 299/1/3
f 302/1/3 300/1/3 301/1/3
f 304/1/3 300/1/3 302/1/3
f 305/1/3 304/1/3 303/1/3
f 306/1/3 287/1/3 300/1/3
f 306/1/3 304/1/3 305/1/3
f 306/1/3 300/1/3 304/1/3
f 307/3/3 306/3/3 305/3/3
f 308/1/3 287/1/3 306/1/3
f 308/3/3 306/3/3 307/3/3
f 310/1/3 308/1/3 307/1/3
f 314/1/3 310/1/3 309/1/3
f 315/1/3 308/1/3 310/1/3
f 315/1/3 310/1/3 314/1/3
f 316/1/3 312/1/3 311/1/3
f 317/1/3 312/1/3 316/1/3
f 318/1/3 314/1/3 313/1/3
f 318/3/3 313/3/3 312/3/3
f 319/3/3 315/3/3 314/3/3
f 319/1/3 314/1/3 318/1/3
f 320/3/3 315/3/3 319/3/3
f 321/1/3 308/1/3 315/1/3
f 321/3/3 315/3/3 320/3/3
f 322/3/3 320/3/3 319/3/3
f 322/3/3 319/3/3 318/3/3
f 323/1/3 321/1/3 320/1/3
f 323/3/3 320/3/3 322/3/3
f 324/1/3 312/1/3 317/1/3
f 325/3/3 322/3/3 318/3/3
f 325/1/3 312/1/3 324/1/3
f 325/3/3 318/3/3 312/3/3
f 326/1/3 323/1/3 322/1/3
f 326/3/3 322/3/3 325/3/3
f 327/1/3 321/1/3 323/1/3
f 327/1/3 323/1/3 326/1/3
f 328/1/3 321/1/3 327/1/3
f 329/1/3 287/1/3 308/1/3
f 329/1/3 321/1/3 328/1/3
f 329/1/3 308/1/3 321/1/3
f 332/2/3 331/2/3 330/2/3
f 333/2/3 331/2/3 332/2/3
f 334/2/3 332/2/3 330/2/3
f 335/2/3 332/2/3 334/2/3
f 336/2/3 334/2/3 330/2/3
f 338/2/3 337/2/3 336/2/3
f 340/2/3 339/2/3 338/2/3
f 342/2/3 340/2/3 338/2/3
f 342/2/3 338/2/3 336/2/3
f 342/2/3 336/2/3 330/2/3
f 343/2/3 340/2/3 342/2/3
f 344/1/3 341/1/3 340/1/3
f 345/2/3 340/2/3 343/2/3
f 345/1/3 344/1/3 340/1/3
f 346/1/3 344/1/3 345/1/3
f 348/2/3 345/2/3 343/2/3
f 349/2/3 345/2/3 348/2/3
f 349/2/3 348/2/3 347/2/3
f 350/2/3 349/2/3 347/2/3
f 351/2/3 350/2/3 347/2/3
f 353/2/3 351/2/3 347/2/3
f 353/1/3 352/1/3 351/1/3
f 354/1/3 352/1/3 353/1/3
f 355/2/3 353/2/3 347/2/3
f 356/2/3 353/2/3 355/2/3
f 357/2/3 353/2/3 356/2/3
f 358/2/3 355/2/3 347/2/3
f 359/2/3 355/2/3 358/2/3
f 362/2/3 361/2/3 360/2/3
f 363/2/3 361/2/3 362/2/3
f 364/2/3 361/2/3 363/2/3
f 365/2/3 361/2/3 364/2/3
f 367/2/3 361/2/3 365/2/3
f 369/2/3 367/2/3 366/2/3
f 370/2/3 361/2/3 367/2/3
f 370/2/3 369/2/3 368/2/3
f 370/2/3 367/2/3 369/2/3
f 372/2/3 370/2/3 368/2/3
f 372/1/3 371/1/3 370/1/3
f 373/1/3 371/1/3 372/1/3
f 374/2/3 372/2/3 368/2/3
f 375/2/3 374/2/3 368/2/3
f 376/2/3 375/2/3 368/2/3
f 377/2/3 375/2/3 376/2/3
f 378/2/3 376/2/3 368/2/3
f 379/2/3 376/2/3 378/2/3
f 380/2/3 376/2/3 379/2/3
f 384/2/3 382/2/3 381/2/3
f 384/2/3 383/2/3 382/2/3
f 385/2/3 383/2/3 384/2/3
f 388/2/3 387/2/3 386/2/3
f 389/2/3 387/2/3 388/2/3
f 391/2/3 387/2/3 389/2/3
f 392/2/3 387/2/3 391/2/3
f 394/2/3 391/2/3 390/2/3
f 394/2/3 393/2/3 392/2/3
f 394/2/3 392/2/3 391/2/3
f 395/2/3 393/2/3 394/2/3
f 396/2/3 394/2/3 390/2/3
f 397/2/3 394/2/3 396/2/3
f 399/2/3 394/2/3 397/2/3
f 400/2/3 399/2/3 398/2/3
f 401/2/3 394/2/3 399/2/3
f 401/2/3 399/2/3 400/2/3
f 404/2/3 403/2/3 402/2/3
f 406/2/3 405/2/3 404/2/3
f 408/2/3 406/2/3 404/2/3
f 408/2/3 407/2/3 406/2/3
f 409/2/3 407/2/3 408/2/3
f 410/2/3 404/2/3 402/2/3
f 410/2/3 408/2/3 404/2/3
f 411/2/3 408/2/3 410/2/3
f 412/2/3 410/2/3 402/2/3
f 413/2/3 410/2/3 412/2/3
f 414/2/3 410/2/3 413/2/3
f 415/2/3 410/2/3 414/2/3
f 417/2/3 410/2/3 415/2/3
f 419/2/3 417/2/3 416/2/3
f 420/2/3 419/2/3 418/2/3
f 421/2/3 410/2/3 417/2/3
f 421/2/3 419/2/3 420/2/3
f 421/2/3 417/2/3 419/2/3
f 424/2/3 423/2/3 422/2/3
f 426/2/3 424/2/3 422/2/3
f 426/2/3 425/2/3 424/2/3
f 427/2/3 425/2/3 426/2/3
f 430/2/3 429/2/3 428/2/3
f 432/2/3 430/2/3 428/2/3
f 432/2/3 431/2/3 430/2/3
f 433/2/3 431/2/3 432/2/3
f 434/2/3 432/2/3 428/2/3
f 438/1/3 437/1/3 436/1/3
f 439/1/3 437/1/3 438/1/3
f 442/2/3 441/2/3 440/2/3
f 443/2/3 441/2/3 442/2/3
f 444/2/3 435/2/3 434/2/3
f 444/2/3 434/2/3 428/2/3
f 445/2/3 435/2/3 444/2/3
f 448/1/3 447/1/3 446/1/3
f 449/1/3 447/1/3 448/1/3
f 450/2/3 444/2/3 428/2/3
f 452/2/3 451/2/3 450/2/3
f 454/2/3 452/2/3 450/2/3
f 454/2/3 453/2/3 452/2/3
f 455/2/3 453/2/3 454/2/3
f 456/2/3 450/2/3 428/2/3
f 456/2/3 454/2/3 450/2/3
f 457/2/3 454/2/3 456/2/3
f 458/2/3 456/2/3 428/2/3
f 459/2/3 456/2/3 458/2/3
f 462/1/3 461/1/3 460/1/3
f 463/1/3 461/1/3 462/1/3
f 464/2/4 465/2/4 466/2/4
f 466/2/4 465/2/4 467/2/4
f 468/2/4 469/2/4 470/2/4
f 470/2/4 469/2/4 471/2/4
f 472/1/4 473/1/4 474/1/4
f 474/1/4 473/1/4 475/1/4
f 476/2/4 477/2/4 478/2/4
f 478/2/4 477/2/4 479/2/4
f 480/1/4 481/1/4 482/1/4
f 482/1/4 481/1/4 483/1/4
f 484/1/4 485/1/4 486/1/4
f 486/1/4 485/1/4 487/1/4
f 488/2/4 489/2/4 491/2/4
f 489/1/4 490/1/4 492/1/4
f 491/2/4 489/2/4 492/2/4
f 492/1/4 490/1/4 493/1/4
f 496/2/5 495/2/5 494/2/5
f 497/2/5 495/2/5 496/2/5
f 501/1/5 499/1/5 498/1/5
f 501/3/5 500/3/5 499/3/5
f 502/3/5 500/3/5 501/3/5
f 503/1/5 501/1/5 498/1/5
f 503/1/5 502/1/5 501/1/5
f 504/1/5 502/1/5 503/1/5
f 507/1/5 506/1/5 505/1/5
f 508/1/5 506/1/5 507/1/5
f 521/2/5 510/2/5 509/2/5
f 522/2/5 510/2/5 521/2/5
f 523/2/5 512/2/5 511/2/5
f 524/2/5 512/2/5 523/2/5
f 525/2/5 514/2/5 513/2/5
f 525/2/5 515/2/5 514/2/5
f 525/2/5 516/2/5 515/2/5
f 526/2/5 516/2/5 525/2/5
f 527/2/5 520/2/5 519/2/5
f 527/2/5 518/2/5 517/2/5
f 527/2/5 519/2/5 518/2/5
f 528/2/5 520/2/5 527/2/5
f 537/2/5 530/2/5 529/2/5
f 538/2/5 530/2/5 537/2/5
f 539/2/5 532/2/5 531/2/5
f 540/2/5 532/2/5 539/2/5
f 541/2/5 534/2/5 533/2/5
f 542/2/5 534/2/5 541/2/5
f 543/2/5 536/2/5 535/2/5
f 544/2/5 536/2/5 543/2/5
f 549/1/5 546/1/5 545/1/5
f 550/1/5 546/1/5 549/1/5
f 551/2/5 548/2/5 547/2/5
f 552/2/5 548/2/5 551/2/5
f 563/2/5 554/2/5 553/2/5
f 564/2/5 554/2/5 563/2/5
f 565/2/5 556/2/5 555/2/5
f 566/2/5 556/2/5 565/2/5
f 567/2/5 558/2/5 557/2/5
f 568/2/5 558/2/5 567/2/5
f 569/2/5 560/2/5 559/2/5
f 570/2/5 560/2/5 569/2/5
f 571/2/5 562/2/5 561/2/5
f 572/2/5 562/2/5 571/2/5
f 579/2/5 574/2/5 573/2/5
f 580/2/5 574/2/5 579/2/5
f 581/2/5 576/2/5 575/2/5
f 582/2/5 576/2/5 581/2/5
f 583/2/5 578/2/5 577/2/5
f 584/2/5 578/2/5 583/2/5
f 589/1/5 586/1/5 585/1/5
f 590/1/5 586/1/5 589/1/5
f 591/1/5 588/1/5 587/1/5
f 592/1/5 588/1/5 591/1/5
f 595/1/5 594/1/5 593/1/5
f 596/1/5 594/1/5 595/1/5
f 599/2/5 598/2/5 597/2/5
f 600/2/5 598/2/5 599/2/5
f 605/1/5 602/1/5 601/1/5
f 606/1/5 602/1/5 605/1/5
f 607/1/5 604/1/5 603/1/5
f 608/1/5 604/1/5 607/1/5
f 611/2/5 610/2/5 609/2/5
f 612/2/5 610/2/5 611/2/5
f 631/1/5 614/1/5 613/1/5
f 632/1/5 614/1/5 631/1/5
f 633/1/5 616/1/5 615/1/5
f 634/1/5 616/1/5 633/1/5
f 635/1/5 618/1/5 617/1/5
f 636/3/5 619/3/5 618/3/5
f 636/1/5 618/1/5 635/1/5
f 637/1/5 620/1/5 619/1/5
f 637/3/5 619/3/5 636/3/5
f 638/1/5 620/1/5 637/1/5
f 639/1/5 622/1/5 621/1/5
f 640/1/5 622/1/5 639/1/5
f 641/1/5 624/1/5 623/1/5
f 642/1/5 624/1/5 641/1/5
f 643/1/5 626/1/5 625/1/5
f 644/3/5 627/3/5 626/3/5
f 644/1/5 626/1/5 643/1/5
f 645/1/5 628/1/5 627/1/5
f 645/3/5 627/3/5 644/3/5
f 646/1/5 628/1/5 645/1/5
f 647/1/5 630/1/5 629/1/5
f 648/1/5 630/1/5 647/1/5
f 653/1/5 650/1/5 649/1/5
f 654/1/5 650/1/5 653/1/5
f 655/1/5 652/1/5 651/1/5
f 656/1/5 652/1/5 655/1/5
f 664/3/5 658/3/5 657/3/5
f 665/1/5 659/1/5 658/1/5
f 665/3/5 658/3/5 664/3/5
f 666/1/5 659/1/5 665/1/5
f 667/1/5 661/1/5 660/1/5
f 668/1/5 661/1/5 667/1/5
f 669/1/5 663/1/5 662/1/5
f 670/1/5 663/1/5 669/1/5
f 673/1/5 672/1/5 671/1/5
f 674/1/5 672/1/5 673/1/5
f 675/2/6 676/2/6 677/2/6
f 677/2/6 676/2/6 678/2/6
f 679/2/6 680/2/6 683/2/6
f 683/2/6 680/2/6 684/2/6
f 681/2/6 682/2/6 685/2/6
f 685/2/6 682/2/6 686/2/6
f 687/1/6 688/1/6 689/1/6
f 689/1/6 688/1/6 690/1/6
f 691/1/6 692/1/6 695/1/6
f 692/3/6 693/3/6 695/3/6
f 693/1/6 694/1/6 696/1/6
f 695/3/6 693/3/6 696/3/6
f 695/1/6 696/1/6 697/1/6
f 696/1/6 694/1/6 697/1/6
f 697/1/6 694/1/6 698/1/6
f 695/1/6 697/1/6 699/1/6
f 699/1/6 697/1/6 700/1/6
f 700/1/6 697/1/6 701/1/6
f 697/2/6 698/2/6 702/2/6
f 701/1/6 697/1/6 702/1/6
f 698/1/6 694/1/6 703/1/6
f 702/2/6 698/2/6 703/2/6
f 695/1/6 699/1/6 704/1/6
f 699/2/6 700/2/6 704/2/6
f 704/2/6 700/2/6 705/2/6
f 700/1/6 701/1/6 706/1/6
f 705/2/6 700/2/6 706/2/6
f 701/2/6 702/2/6 707/2/6
f 706/1/6 701/1/6 707/1/6
f 705/2/6 706/2/6 708/2/6
f 704/1/6 705/1/6 708/1/6
f 706/2/6 707/2/6 708/2/6
f 708/2/6 707/2/6 709/2/6
f 709/2/6 707/2/6 710/2/6
f 710/2/6 707/2/6 711/2/6
f 707/2/6 702/2/6 712/2/6
f 711/2/6 707/2/6 712/2/6
f 702/1/6 703/1/6 713/1/6
f 712/2/6 702/2/6 713/2/6
f 703/1/6 694/1/6 714/1/6
f 713/1/6 703/1/6 714/1/6
f 714/1/6 694/1/6 715/1/6
f 708/1/6 709/1/6 716/1/6
f 709/2/6 710/2/6 716/2/6
f 710/1/6 711/1/6 717/1/6
f 716/2/6 710/2/6 717/2/6
f 711/2/6 712/2/6 718/2/6
f 717/1/6 711/1/6 718/1/6
f 718/2/6 712/2/6 719/2/6
f 712/1/6 713/1/6 720/1/6
f 713/1/6 714/1/6 720/1/6
f 714/3/6 715/3/6 721/3/6
f 720/1/6 714/1/6 721/1/6
f 721/3/6 715/3/6 722/3/6
f 715/1/6 694/1/6 723/1/6
f 722/3/6 715/3/6 723/3/6
f 723/1/6 694/1/6 724/1/6
f 719/2/6 712/2/6 725/2/6
f 716/1/6 717/1/6 725/1/6
f 718/1/6 719/1/6 725/1/6
f 717/1/6 718/1/6 725/1/6
f 712/1/6 720/1/6 726/1/6
f 725/2/6 712/2/6 726/2/6
f 720/3/6 721/3/6 727/3/6
f 726/1/6 720/1/6 727/1/6
f 721/1/6 722/1/6 728/1/6
f 727/3/6 721/3/6 728/3/6
f 723/3/6 724/3/6 729/3/6
f 728/1/6 722/1/6 729/1/6
f 722/3/6 723/3/6 729/3/6
f 729/3/6 724/3/6 730/3/6
f 729/1/6 730/1/6 731/1/6
f 730/3/6 724/3/6 732/3/6
f 731/1/6 730/1/6 732/1/6
f 724/1/6 694/1/6 733/1/6
f 732/3/6 724/3/6 733/3/6
f 733/1/6 694/1/6 734/1/6
f 691/1/6 695/1/6 735/1/6
f 708/1/6 716/1/6 735/1/6
f 695/1/6 704/1/6 735/1/6
f 727/1/6 728/1/6 735/1/6
f 704/1/6 708/1/6 735/1/6
f 726/1/6 727/1/6 735/1/6
f 725/1/6 726/1/6 735/1/6
f 716/1/6 725/1/6 735/1/6
f 735/1/6 728/1/6 736/1/6
f 736/1/6 728/1/6 737/1/6
f 737/1/6 728/1/6 738/1/6
f 738/1/6 728/1/6 739/1/6
f 739/1/6 728/1/6 740/1/6
f 740/1/6 728/1/6 741/1/6
f 741/1/6 728/1/6 742/1/6
f 729/1/6 731/1/6 743/1/6
f 728/3/6 729/3/6 743/3/6
f 733/3/6 734/3/6 744/3/6
f 743/1/6 731/1/6 744/1/6
f 732/3/6 733/3/6 744/3/6
f 731/3/6 732/3/6 744/3/6
f 691/1/6 735/1/6 745/1/6
f 735/3/6 736/3/6 745/3/6
f 736/1/6 737/1/6 746/1/6
f 745/3/6 736/3/6 746/3/6
f 746/1/6 737/1/6 747/1/6
f 747/1/6 737/1/6 748/1/6
f 748/1/6 737/1/6 749/1/6
f 749/1/6 737/1/6 750/1/6
f 737/3/6 738/3/6 751/3/6
f 750/1/6 737/1/6 751/1/6
f 738/1/6 739/1/6 752/1/6
f 751/3/6 738/3/6 752/3/6
f 747/1/6 748/1/6 753/1/6
f 748/3/6 749/3/6 753/3/6
f 749/1/6 750/1/6 754/1/6
f 753/3/6 749/3/6 754/3/6
f 750/3/6 751/3/6 755/3/6
f 754/1/6 750/1/6 755/1/6
f 751/1/6 752/1/6 756/1/6
f 755/3/6 751/3/6 756/3/6
f 752/1/6 739/1/6 757/1/6
f 756/1/6 752/1/6 757/1/6
f 739/3/6 740/3/6 758/3/6
f 757/1/6 739/1/6 758/1/6
f 740/1/6 741/1/6 759/1/6
f 741/3/6 742/3/6 759/3/6
f 742/1/6 728/1/6 760/1/6
f 759/3/6 742/3/6 760/3/6
f 760/1/6 728/1/6 761/1/6
f 761/1/6 728/1/6 762/1/6
f 756/1/6 757/1/6 763/1/6
f 747/1/6 753/1/6 763/1/6
f 753/1/6 754/1/6 763/1/6
f 746/3/6 747/3/6 763/3/6
f 755/1/6 756/1/6 763/1/6
f 754/1/6 755/1/6 763/1/6
f 757/3/6 758/3/6 764/3/6
f 763/1/6 757/1/6 764/1/6
f 758/3/6 740/3/6 765/3/6
f 764/3/6 758/3/6 765/3/6
f 740/1/6 759/1/6 766/1/6
f 765/3/6 740/3/6 766/3/6
f 760/1/6 761/1/6 766/1/6
f 759/1/6 760/1/6 766/1/6
f 766/1/6 761/1/6 767/1/6
f 767/1/6 761/1/6 768/1/6
f 762/1/6 728/1/6 769/1/6
f 728/3/6 743/3/6 770/3/6
f 769/1/6 728/1/6 770/1/6
f 743/3/6 744/3/6 770/3/6
f 744/3/6 734/3/6 771/3/6
f 770/3/6 744/3/6 771/3/6
f 771/3/6 734/3/6 772/3/6
f 691/1/6 745/1/6 773/1/6
f 745/1/6 746/1/6 773/1/6
f 773/1/6 746/1/6 774/1/6
f 763/3/6 764/3/6 775/3/6
f 764/3/6 765/3/6 775/3/6
f 765/1/6 766/1/6 776/1/6
f 775/3/6 765/3/6 776/3/6
f 766/1/6 767/1/6 776/1/6
f 776/1/6 767/1/6 777/1/6
f 767/3/6 768/3/6 778/3/6
f 777/1/6 767/1/6 778/1/6
f 768/1/6 761/1/6 779/1/6
f 761/3/6 762/3/6 779/3/6
f 762/1/6 769/1/6 780/1/6
f 779/3/6 762/3/6 780/3/6
f 769/3/6 770/3/6 781/3/6
f 780/1/6 769/1/6 781/1/6
f 770/3/6 771/3/6 781/3/6
f 781/3/6 771/3/6 782/3/6
f 782/3/6 771/3/6 783/3/6
f 783/3/6 771/3/6 784/3/6
f 771/1/6 772/1/6 785/1/6
f 784/3/6 771/3/6 785/3/6
f 785/1/6 772/1/6 786/1/6
f 773/3/6 774/3/6 787/3/6
f 691/1/6 773/1/6 787/1/6
f 774/1/6 746/1/6 788/1/6
f 787/3/6 774/3/6 788/3/6
f 746/3/6 763/3/6 789/3/6
f 788/1/6 746/1/6 789/1/6
f 763/3/6 775/3/6 789/3/6
f 789/3/6 775/3/6 790/3/6
f 790/3/6 775/3/6 791/3/6
f 791/3/6 775/3/6 792/3/6
f 776/1/6 777/1/6 793/1/6
f 792/3/6 775/3/6 793/3/6
f 775/1/6 776/1/6 793/1/6
f 768/1/6 779/1/6 794/1/6
f 778/3/6 768/3/6 794/3/6
f 779/1/6 780/1/6 794/1/6
f 777/3/6 778/3/6 794/3/6
f 780/1/6 781/1/6 794/1/6
f 781/1/6 782/1/6 794/1/6
f 794/1/6 782/1/6 795/1/6
f 795/1/6 782/1/6 796/1/6
f 796/1/6 782/1/6 797/1/6
f 797/1/6 782/1/6 798/1/6
f 798/1/6 782/1/6 799/1/6
f 799/1/6 782/1/6 800/1/6
f 782/3/6 783/3/6 801/3/6
f 800/1/6 782/1/6 801/1/6
f 783/1/6 784/1/6 802/1/6
f 801/3/6 783/3/6 802/3/6
f 802/1/6 784/1/6 803/1/6
f 691/1/6 787/1/6 804/1/6
f 787/1/6 788/1/6 804/1/6
f 789/3/6 790/3/6 805/3/6
f 804/1/6 788/1/6 805/1/6
f 788/3/6 789/3/6 805/3/6
f 791/3/6 792/3/6 806/3/6
f 790/1/6 791/1/6 806/1/6
f 792/1/6 793/1/6 807/1/6
f 806/3/6 792/3/6 807/3/6
f 793/1/6 777/1/6 808/1/6
f 807/1/6 793/1/6 808/1/6
f 777/3/6 794/3/6 808/3/6
f 794/3/6 795/3/6 808/3/6
f 808/3/6 795/3/6 809/3/6
f 809/3/6 795/3/6 810/3/6
f 795/1/6 796/1/6 811/1/6
f 810/3/6 795/3/6 811/3/6
f 811/1/6 796/1/6 812/1/6
f 796/2/6 797/2/6 813/2/6
f 812/1/6 796/1/6 813/1/6
f 813/2/6 797/2/6 814/2/6
f 797/1/6 798/1/6 815/1/6
f 814/2/6 797/2/6 815/2/6
f 798/2/6 799/2/6 816/2/6
f 815/1/6 798/1/6 816/1/6
f 802/3/6 803/3/6 817/3/6
f 801/3/6 802/3/6 817/3/6
f 800/3/6 801/3/6 817/3/6
f 803/1/6 784/1/6 818/1/6
f 817/3/6 803/3/6 818/3/6
f 784/3/6 785/3/6 819/3/6
f 818/1/6 784/1/6 819/1/6
f 785/3/6 786/3/6 819/3/6
f 819/3/6 786/3/6 820/3/6
f 806/1/6 807/1/6 821/1/6
f 790/1/6 806/1/6 821/1/6
f 805/3/6 790/3/6 821/3/6
f 804/3/6 805/3/6 821/3/6
f 808/1/6 809/1/6 821/1/6
f 807/1/6 808/1/6 821/1/6
f 821/1/6 809/1/6 822/1/6
f 812/1/6 813/1/6 823/1/6
f 813/1/6 814/1/6 823/1/6
f 815/2/6 816/2/6 824/2/6
f 823/1/6 814/1/6 824/1/6
f 814/2/6 815/2/6 824/2/6
f 816/2/6 799/2/6 825/2/6
f 824/2/6 816/2/6 825/2/6
f 799/1/6 800/1/6 826/1/6
f 825/2/6 799/2/6 826/2/6
f 826/1/6 800/1/6 827/1/6
f 827/1/6 800/1/6 828/1/6
f 800/3/6 817/3/6 829/3/6
f 819/1/6 820/1/6 830/1/6
f 829/3/6 817/3/6 830/3/6
f 818/1/6 819/1/6 830/1/6
f 817/1/6 818/1/6 830/1/6
f 830/1/6 820/1/6 831/1/6
f 831/1/6 820/1/6 832/1/6
f 691/1/6 804/1/6 833/1/6
f 804/3/6 821/3/6 833/3/6
f 821/3/6 822/3/6 833/3/6
f 833/3/6 822/3/6 834/3/6
f 834/3/6 822/3/6 835/3/6
f 822/1/6 809/1/6 836/1/6
f 835/3/6 822/3/6 836/3/6
f 836/1/6 809/1/6 837/1/6
f 837/1/6 809/1/6 838/1/6
f 838/1/6 809/1/6 839/1/6
f 809/3/6 810/3/6 840/3/6
f 839/1/6 809/1/6 840/1/6
f 810/1/6 811/1/6 841/1/6
f 811/3/6 812/3/6 841/3/6
f 812/1/6 823/1/6 842/1/6
f 841/3/6 812/3/6 842/3/6
f 842/1/6 823/1/6 843/1/6
f 823/2/6 824/2/6 844/2/6
f 843/1/6 823/1/6 844/1/6
f 824/2/6 825/2/6 844/2/6
f 827/3/6 828/3/6 845/3/6
f 828/1/6 800/1/6 846/1/6
f 845/3/6 828/3/6 846/3/6
f 830/1/6 831/1/6 847/1/6
f 829/1/6 830/1/6 847/1/6
f 847/1/6 831/1/6 848/1/6
f 834/3/6 835/3/6 849/3/6
f 833/1/6 834/1/6 849/1/6
f 835/1/6 836/1/6 850/1/6
f 849/3/6 835/3/6 850/3/6
f 836/1/6 837/1/6 850/1/6
f 850/1/6 837/1/6 851/1/6
f 837/3/6 838/3/6 852/3/6
f 851/1/6 837/1/6 852/1/6
f 838/1/6 839/1/6 853/1/6
f 852/3/6 838/3/6 853/3/6
f 839/3/6 840/3/6 854/3/6
f 853/1/6 839/1/6 854/1/6
f 840/3/6 810/3/6 855/3/6
f 854/3/6 840/3/6 855/3/6
f 842/1/6 843/1/6 856/1/6
f 855/3/6 810/3/6 856/3/6
f 810/1/6 841/1/6 856/1/6
f 841/1/6 842/1/6 856/1/6
f 843/2/6 844/2/6 857/2/6
f 856/1/6 843/1/6 857/1/6
f 857/2/6 844/2/6 858/2/6
f 844/2/6 825/2/6 859/2/6
f 858/2/6 844/2/6 859/2/6
f 826/1/6 827/1/6 860/1/6
f 859/2/6 825/2/6 860/2/6
f 825/1/6 826/1/6 860/1/6
f 827/3/6 845/3/6 861/3/6
f 860/1/6 827/1/6 861/1/6
f 845/1/6 846/1/6 862/1/6
f 861/3/6 845/3/6 862/3/6
f 846/1/6 800/1/6 863/1/6
f 862/1/6 846/1/6 863/1/6
f 800/3/6 829/3/6 864/3/6
f 863/1/6 800/1/6 864/1/6
f 829/1/6 847/1/6 865/1/6
f 864/3/6 829/3/6 865/3/6
f 847/3/6 848/3/6 866/3/6
f 865/1/6 847/1/6 866/1/6
f 848/1/6 831/1/6 867/1/6
f 866/3/6 848/3/6 867/3/6
f 831/3/6 832/3/6 868/3/6
f 867/1/6 831/1/6 868/1/6
f 868/3/6 832/3/6 869/3/6
f 854/3/6 855/3/6 870/3/6
f 849/1/6 850/1/6 870/1/6
f 853/3/6 854/3/6 870/3/6
f 852/3/6 853/3/6 870/3/6
f 850/1/6 851/1/6 870/1/6
f 851/3/6 852/3/6 870/3/6
f 870/3/6 855/3/6 871/3/6
f 871/3/6 855/3/6 872/3/6
f 872/3/6 855/3/6 873/3/6
f 857/1/6 858/1/6 874/1/6
f 855/1/6 856/1/6 874/1/6
f 856/1/6 857/1/6 874/1/6
f 874/1/6 858/1/6 875/1/6
f 862/3/6 863/3/6 876/3/6
f 861/3/6 862/3/6 876/3/6
f 860/3/6 861/3/6 876/3/6
f 876/3/6 863/3/6 877/3/6
f 849/1/6 870/1/6 878/1/6
f 870/1/6 871/1/6 878/1/6
f 871/3/6 872/3/6 879/3/6
f 878/1/6 871/1/6 879/1/6
f 879/3/6 872/3/6 880/3/6
f 880/3/6 872/3/6 881/3/6
f 873/3/6 855/3/6 882/3/6
f 872/1/6 873/1/6 882/1/6
f 855/1/6 874/1/6 883/1/6
f 882/3/6 855/3/6 883/3/6
f 874/3/6 875/3/6 884/3/6
f 883/1/6 874/1/6 884/1/6
f 875/1/6 858/1/6 885/1/6
f 884/3/6 875/3/6 885/3/6
f 858/2/6 859/2/6 886/2/6
f 886/2/6 859/2/6 887/2/6
f 860/3/6 876/3/6 888/3/6
f 876/1/6 877/1/6 889/1/6
f 888/3/6 876/3/6 889/3/6
f 877/3/6 863/3/6 890/3/6
f 889/1/6 877/1/6 890/1/6
f 890/3/6 863/3/6 891/3/6
f 878/3/6 879/3/6 892/3/6
f 879/3/6 880/3/6 892/3/6
f 880/1/6 881/1/6 893/1/6
f 892/3/6 880/3/6 893/3/6
f 883/1/6 884/1/6 894/1/6
f 881/3/6 872/3/6 894/3/6
f 882/1/6 883/1/6 894/1/6
f 872/1/6 882/1/6 894/1/6
f 884/1/6 885/1/6 894/1/6
f 894/1/6 885/1/6 895/1/6
f 885/1/6 858/1/6 896/1/6
f 895/1/6 885/1/6 896/1/6
f 858/2/6 886/2/6 896/2/6
f 886/1/6 887/1/6 897/1/6
f 896/2/6 886/2/6 897/2/6
f 897/1/6 887/1/6 898/1/6
f 889/1/6 890/1/6 899/1/6
f 888/1/6 889/1/6 899/1/6
f 891/3/6 863/3/6 899/3/6
f 890/1/6 891/1/6 899/1/6
f 868/1/6 869/1/6 900/1/6
f 899/3/6 863/3/6 900/3/6
f 865/1/6 866/1/6 900/1/6
f 867/1/6 868/1/6 900/1/6
f 863/1/6 864/1/6 900/1/6
f 866/1/6 867/1/6 900/1/6
f 864/1/6 865/1/6 900/1/6
f 833/1/6 849/1/6 901/1/6
f 849/1/6 878/1/6 901/1/6
f 901/1/6 878/1/6 902/1/6
f 893/1/6 881/1/6 903/1/6
f 892/1/6 893/1/6 903/1/6
f 881/3/6 894/3/6 903/3/6
f 894/3/6 895/3/6 903/3/6
f 903/3/6 895/3/6 904/3/6
f 896/1/6 897/1/6 905/1/6
f 904/3/6 895/3/6 905/3/6
f 895/1/6 896/1/6 905/1/6
f 905/1/6 897/1/6 906/1/6
f 906/1/6 897/1/6 907/1/6
f 897/2/6 898/2/6 908/2/6
f 907/1/6 897/1/6 908/1/6
f 898/1/6 887/1/6 909/1/6
f 908/2/6 898/2/6 909/2/6
f 887/2/6 859/2/6 910/2/6
f 909/1/6 887/1/6 910/1/6
f 888/1/6 899/1/6 911/1/6
f 899/1/6 900/1/6 911/1/6
f 911/1/6 900/1/6 912/1/6
f 900/1/6 869/1/6 913/1/6
f 912/1/6 900/1/6 913/1/6
f 913/1/6 869/1/6 914/1/6
f 901/3/6 902/3/6 915/3/6
f 833/1/6 901/1/6 915/1/6
f 902/1/6 878/1/6 916/1/6
f 915/3/6 902/3/6 916/3/6
f 878/3/6 892/3/6 917/3/6
f 903/1/6 904/1/6 918/1/6
f 917/3/6 892/3/6 918/3/6
f 892/1/6 903/1/6 918/1/6
f 904/3/6 905/3/6 919/3/6
f 918/1/6 904/1/6 919/1/6
f 905/3/6 906/3/6 919/3/6
f 919/3/6 906/3/6 920/3/6
f 906/1/6 907/1/6 921/1/6
f 920/3/6 906/3/6 921/3/6
f 921/1/6 907/1/6 922/1/6
f 908/2/6 909/2/6 923/2/6
f 907/2/6 908/2/6 923/2/6
f 909/2/6 910/2/6 923/2/6
f 910/2/6 859/2/6 924/2/6
f 923/2/6 910/2/6 924/2/6
f 911/3/6 912/3/6 925/3/6
f 888/1/6 911/1/6 925/1/6
f 912/1/6 913/1/6 926/1/6
f 925/3/6 912/3/6 926/3/6
f 913/2/6 914/2/6 927/2/6
f 927/2/6 914/2/6 928/2/6
f 919/1/6 920/1/6 929/1/6
f 878/3/6 917/3/6 929/3/6
f 917/1/6 918/1/6 929/1/6
f 918/1/6 919/1/6 929/1/6
f 929/1/6 920/1/6 930/1/6
f 921/3/6 922/3/6 931/3/6
f 930/1/6 920/1/6 931/1/6
f 920/3/6 921/3/6 931/3/6
f 931/3/6 922/3/6 932/3/6
f 922/1/6 907/1/6 933/1/6
f 932/3/6 922/3/6 933/3/6
f 933/1/6 907/1/6 934/1/6
f 907/2/6 923/2/6 935/2/6
f 934/1/6 907/1/6 935/1/6
f 923/1/6 924/1/6 936/1/6
f 935/2/6 923/2/6 936/2/6
f 924/2/6 859/2/6 937/2/6
f 936/1/6 924/1/6 937/1/6
f 859/1/6 860/1/6 938/1/6
f 937/2/6 859/2/6 938/2/6
f 860/3/6 888/3/6 939/3/6
f 938/1/6 860/1/6 939/1/6
f 888/1/6 925/1/6 940/1/6
f 939/3/6 888/3/6 940/3/6
f 925/1/6 926/1/6 940/1/6
f 926/1/6 913/1/6 941/1/6
f 940/1/6 926/1/6 941/1/6
f 913/2/6 927/2/6 941/2/6
f 927/1/6 928/1/6 942/1/6
f 941/2/6 927/2/6 942/2/6
f 916/1/6 878/1/6 943/1/6
f 929/3/6 930/3/6 943/3/6
f 878/3/6 929/3/6 943/3/6
f 915/1/6 916/1/6 943/1/6
f 931/1/6 932/1/6 944/1/6
f 943/3/6 930/3/6 944/3/6
f 930/1/6 931/1/6 944/1/6
f 933/3/6 934/3/6 945/3/6
f 944/1/6 932/1/6 945/1/6
f 932/3/6 933/3/6 945/3/6
f 936/1/6 937/1/6 946/1/6
f 945/3/6 934/3/6 946/3/6
f 939/1/6 940/1/6 946/1/6
f 940/1/6 941/1/6 946/1/6
f 934/1/6 935/1/6 946/1/6
f 938/1/6 939/1/6 946/1/6
f 935/1/6 936/1/6 946/1/6
f 941/1/6 942/1/6 946/1/6
f 937/1/6 938/1/6 946/1/6
f 944/1/6 945/1/6 947/1/6
f 946/1/6 942/1/6 947/1/6
f 945/1/6 946/1/6 947/1/6
f 943/1/6 944/1/6 947/1/6
f 947/1/6 942/1/6 948/1/6
f 943/1/6 947/1/6 949/1/6
f 947/2/6 948/2/6 950/2/6
f 949/1/6 947/1/6 950/1/6
f 943/1/6 949/1/6 951/1/6
f 949/2/6 950/2/6 952/2/6
f 951/1/6 949/1/6 952/1/6
f 950/2/6 948/2/6 953/2/6
f 952/2/6 950/2/6 953/2/6
f 948/1/6 942/1/6 954/1/6
f 953/2/6 948/2/6 954/2/6
f 943/1/6 951/1/6 955/1/6
f 955/1/6 951/1/6 956/1/6
f 956/1/6 951/1/6 957/1/6
f 952/2/6 953/2/6 958/2/6
f 957/1/6 951/1/6 958/1/6
f 951/2/6 952/2/6 958/2/6
f 958/2/6 953/2/6 959/2/6
f 959/2/6 953/2/6 960/2/6
f 960/2/6 953/2/6 961/2/6
f 953/1/6 954/1/6 962/1/6
f 961/2/6 953/2/6 962/2/6
f 956/1/6 957/1/6 963/1/6
f 957/2/6 958/2/6 964/2/6
f 963/1/6 957/1/6 964/1/6
f 958/2/6 959/2/6 964/2/6
f 959/1/6 960/1/6 965/1/6
f 964/2/6 959/2/6 965/2/6
f 960/2/6 961/2/6 966/2/6
f 965/1/6 960/1/6 966/1/6
f 955/2/6 956/2/6 967/2/6
f 956/1/6 963/1/6 967/1/6
f 964/2/6 965/2/6 968/2/6
f 967/1/6 963/1/6 968/1/6
f 965/2/6 966/2/6 968/2/6
f 963/2/6 964/2/6 968/2/6
f 968/2/6 966/2/6 969/2/6
f 969/2/6 966/2/6 970/2/6
f 966/2/6 961/2/6 971/2/6
f 970/2/6 966/2/6 971/2/6
f 961/1/6 962/1/6 972/1/6
f 971/2/6 961/2/6 972/2/6
f 943/1/6 955/1/6 973/1/6
f 973/1/6 955/1/6 974/1/6
f 974/1/6 955/1/6 975/1/6
f 975/1/6 955/1/6 976/1/6
f 976/1/6 955/1/6 977/1/6
f 977/1/6 955/1/6 978/1/6
f 955/2/6 967/2/6 979/2/6
f 978/1/6 955/1/6 979/1/6
f 967/2/6 968/2/6 979/2/6
f 968/2/6 969/2/6 979/2/6
f 979/2/6 969/2/6 980/2/6
f 969/1/6 970/1/6 981/1/6
f 980/2/6 969/2/6 981/2/6
f 970/2/6 971/2/6 982/2/6
f 981/1/6 970/1/6 982/1/6
f 971/1/6 972/1/6 983/1/6
f 972/1/6 962/1/6 984/1/6
f 983/1/6 972/1/6 984/1/6
f 943/1/6 973/1/6 985/1/6
f 973/2/6 974/2/6 986/2/6
f 985/1/6 973/1/6 986/1/6
f 974/1/6 975/1/6 987/1/6
f 986/2/6 974/2/6 987/2/6
f 987/1/6 975/1/6 988/1/6
f 988/1/6 975/1/6 989/1/6
f 979/1/6 980/1/6 990/1/6
f 978/1/6 979/1/6 990/1/6
f 990/1/6 980/1/6 991/1/6
f 991/1/6 980/1/6 992/1/6
f 992/1/6 980/1/6 993/1/6
f 962/1/6 954/1/6 994/1/6
f 954/1/6 942/1/6 994/1/6
f 984/1/6 962/1/6 994/1/6
f 994/1/6 942/1/6 995/1/6
f 915/1/6 943/1/6 996/1/6
f 833/1/6 915/1/6 996/1/6
f 691/1/6 833/1/6 996/1/6
f 943/1/6 985/1/6 996/1/6
f 996/1/6 985/1/6 997/1/6
f 997/1/6 985/1/6 998/1/6
f 985/2/6 986/2/6 999/2/6
f 998/1/6 985/1/6 999/1/6
f 986/1/6 987/1/6 1000/1/6
f 999/2/6 986/2/6 1000/2/6
f 987/1/6 988/1/6 1000/1/6
f 1000/1/6 988/1/6 1001/1/6
f 1001/1/6 988/1/6 1002/1/6
f 1002/1/6 988/1/6 1003/1/6
f 989/1/6 975/1/6 1004/1/6
f 975/3/6 976/3/6 1004/3/6
f 976/1/6 977/1/6 1005/1/6
f 1004/3/6 976/3/6 1005/3/6
f 977/3/6 978/3/6 1006/3/6
f 978/1/6 990/1/6 1006/1/6
f 990/3/6 991/3/6 1007/3/6
f 1006/1/6 990/1/6 1007/1/6
f 971/1/6 983/1/6 1008/1/6
f 980/2/6 981/2/6 1008/2/6
f 982/2/6 971/2/6 1008/2/6
f 981/2/6 982/2/6 1008/2/6
f 983/2/6 984/2/6 1009/2/6
f 1008/1/6 983/1/6 1009/1/6
f 995/1/6 942/1/6 1010/1/6
f 942/1/6 928/1/6 1011/1/6
f 1010/1/6 942/1/6 1011/1/6
f 1001/1/6 1002/1/6 1012/1/6
f 1000/2/6 1001/2/6 1012/2/6
f 998/2/6 999/2/6 1012/2/6
f 999/2/6 1000/2/6 1012/2/6
f 1002/2/6 1003/2/6 1013/2/6
f 1012/1/6 1002/1/6 1013/1/6
f 1003/1/6 988/1/6 1014/1/6
f 1013/2/6 1003/2/6 1014/2/6
f 1014/1/6 988/1/6 1015/1/6
f 989/1/6 1004/1/6 1016/1/6
f 988/3/6 989/3/6 1016/3/6
f 1004/1/6 1005/1/6 1016/1/6
f 1016/1/6 1005/1/6 1017/1/6
f 1006/3/6 1007/3/6 1018/3/6
f 977/3/6 1006/3/6 1018/3/6
f 1007/3/6 991/3/6 1019/3/6
f 1018/3/6 1007/3/6 1019/3/6
f 991/1/6 992/1/6 1019/1/6
f 992/3/6 993/3/6 1020/3/6
f 1019/1/6 992/1/6 1020/1/6
f 993/1/6 980/1/6 1021/1/6
f 1020/3/6 993/3/6 1021/3/6
f 994/3/6 995/3/6 1022/3/6
f 995/1/6 1010/1/6 1022/1/6
f 1010/3/6 1011/3/6 1023/3/6
f 1022/1/6 1010/1/6 1023/1/6
f 997/1/6 998/1/6 1024/1/6
f 996/2/6 997/2/6 1024/2/6
f 1024/1/6 998/1/6 1025/1/6
f 1012/2/6 1013/2/6 1026/2/6
f 998/2/6 1012/2/6 1026/2/6
f 1014/2/6 1015/2/6 1026/2/6
f 1013/2/6 1014/2/6 1026/2/6
f 1026/2/6 1015/2/6 1027/2/6
f 1027/2/6 1015/2/6 1028/2/6
f 1028/2/6 1015/2/6 1029/2/6
f 988/3/6 1016/3/6 1030/3/6
f 1016/3/6 1017/3/6 1030/3/6
f 1017/1/6 1005/1/6 1031/1/6
f 1030/3/6 1017/3/6 1031/3/6
f 1005/1/6 977/1/6 1032/1/6
f 1031/1/6 1005/1/6 1032/1/6
f 977/3/6 1018/3/6 1033/3/6
f 1032/1/6 977/1/6 1033/1/6
f 1020/1/6 1021/1/6 1034/1/6
f 1033/3/6 1018/3/6 1034/3/6
f 1019/1/6 1020/1/6 1034/1/6
f 1018/1/6 1019/1/6 1034/1/6
f 1034/1/6 1021/1/6 1035/1/6
f 980/2/6 1008/2/6 1036/2/6
f 1008/2/6 1009/2/6 1036/2/6
f 1009/2/6 984/2/6 1037/2/6
f 1036/2/6 1009/2/6 1037/2/6
f 1024/2/6 1025/2/6 1038/2/6
f 996/2/6 1024/2/6 1038/2/6
f 691/1/6 996/1/6 1038/1/6
f 1025/1/6 998/1/6 1039/1/6
f 1038/2/6 1025/2/6 1039/2/6
f 998/2/6 1026/2/6 1040/2/6
f 1039/1/6 998/1/6 1040/1/6
f 1040/2/6 1026/2/6 1041/2/6
f 1026/1/6 1027/1/6 1042/1/6
f 1041/2/6 1026/2/6 1042/2/6
f 1027/2/6 1028/2/6 1043/2/6
f 1042/1/6 1027/1/6 1043/1/6
f 1029/2/6 1015/2/6 1044/2/6
f 1028/1/6 1029/1/6 1044/1/6
f 1015/1/6 988/1/6 1045/1/6
f 1044/2/6 1015/2/6 1045/2/6
f 988/3/6 1030/3/6 1046/3/6
f 1045/1/6 988/1/6 1046/1/6
f 1030/1/6 1031/1/6 1047/1/6
f 1046/3/6 1030/3/6 1047/3/6
f 1031/1/6 1032/1/6 1047/1/6
f 1032/3/6 1033/3/6 1048/3/6
f 1047/1/6 1032/1/6 1048/1/6
f 1034/3/6 1035/3/6 1048/3/6
f 1033/3/6 1034/3/6 1048/3/6
f 1048/3/6 1035/3/6 1049/3/6
f 984/1/6 994/1/6 1050/1/6
f 994/3/6 1022/3/6 1050/3/6
f 1022/3/6 1023/3/6 1050/3/6
f 1050/3/6 1023/3/6 1051/3/6
f 691/1/6 1038/1/6 1052/1/6
f 1038/1/6 1039/1/6 1052/1/6
f 1052/1/6 1039/1/6 1053/1/6
f 1040/1/6 1041/1/6 1054/1/6
f 1039/2/6 1040/2/6 1054/2/6
f 1041/2/6 1042/2/6 1055/2/6
f 1054/1/6 1041/1/6 1055/1/6
f 1042/2/6 1043/2/6 1055/2/6
f 1046/1/6 1047/1/6 1056/1/6
f 1045/1/6 1046/1/6 1056/1/6
f 1044/1/6 1045/1/6 1056/1/6
f 1048/1/6 1049/1/6 1056/1/6
f 1047/1/6 1048/1/6 1056/1/6
f 1056/1/6 1049/1/6 1057/1/6
f 1057/1/6 1049/1/6 1058/1/6
f 1049/3/6 1035/3/6 1059/3/6
f 1058/1/6 1049/1/6 1059/1/6
f 1059/3/6 1035/3/6 1060/3/6
f 1035/1/6 1021/1/6 1061/1/6
f 1060/3/6 1035/3/6 1061/3/6
f 1061/1/6 1021/1/6 1062/1/6
f 1062/1/6 1021/1/6 1063/1/6
f 1021/1/6 980/1/6 1064/1/6
f 1063/1/6 1021/1/6 1064/1/6
f 980/2/6 1036/2/6 1065/2/6
f 1064/1/6 980/1/6 1065/1/6
f 1065/2/6 1036/2/6 1066/2/6
f 1051/3/6 1023/3/6 1067/3/6
f 1023/3/6 1011/3/6 1067/3/6
f 1067/3/6 1011/3/6 1068/3/6
f 1052/2/6 1053/2/6 1069/2/6
f 691/1/6 1052/1/6 1069/1/6
f 1053/1/6 1039/1/6 1070/1/6
f 1069/2/6 1053/2/6 1070/2/6
f 1039/2/6 1054/2/6 1071/2/6
f 1070/1/6 1039/1/6 1071/1/6
f 1054/2/6 1055/2/6 1071/2/6
f 1071/2/6 1055/2/6 1072/2/6
f 1055/2/6 1043/2/6 1073/2/6
f 1072/2/6 1055/2/6 1073/2/6
f 1028/1/6 1044/1/6 1073/1/6
f 1043/2/6 1028/2/6 1073/2/6
f 1044/1/6 1056/1/6 1073/1/6
f 1073/1/6 1056/1/6 1074/1/6
f 1057/1/6 1058/1/6 1075/1/6
f 1058/3/6 1059/3/6 1075/3/6
f 1059/1/6 1060/1/6 1076/1/6
f 1075/3/6 1059/3/6 1076/3/6
f 1061/3/6 1062/3/6 1077/3/6
f 1076/1/6 1060/1/6 1077/1/6
f 1060/3/6 1061/3/6 1077/3/6
f 1077/3/6 1062/3/6 1078/3/6
f 1063/3/6 1064/3/6 1079/3/6
f 1062/1/6 1063/1/6 1079/1/6
f 1064/1/6 1065/1/6 1080/1/6
f 1079/3/6 1064/3/6 1080/3/6
f 1065/1/6 1066/1/6 1080/1/6
f 1051/3/6 1067/3/6 1081/3/6
f 1050/1/6 1051/1/6 1081/1/6
f 1067/1/6 1068/1/6 1082/1/6
f 1081/3/6 1067/3/6 1082/3/6
f 1074/1/6 1056/1/6 1083/1/6
f 1056/3/6 1057/3/6 1083/3/6
f 1077/1/6 1078/1/6 1084/1/6
f 1083/3/6 1057/3/6 1084/3/6
f 1076/1/6 1077/1/6 1084/1/6
f 1057/1/6 1075/1/6 1084/1/6
f 1075/1/6 1076/1/6 1084/1/6
f 1078/3/6 1062/3/6 1085/3/6
f 1084/1/6 1078/1/6 1085/1/6
f 1062/1/6 1079/1/6 1086/1/6
f 1085/3/6 1062/3/6 1086/3/6
f 1079/1/6 1080/1/6 1086/1/6
f 984/1/6 1050/1/6 1087/1/6
f 1050/1/6 1081/1/6 1087/1/6
f 1081/1/6 1082/1/6 1087/1/6
f 1087/1/6 1082/1/6 1088/1/6
f 1071/1/6 1072/1/6 1089/1/6
f 1069/1/6 1070/1/6 1089/1/6
f 1070/1/6 1071/1/6 1089/1/6
f 1072/2/6 1073/2/6 1090/2/6
f 1089/1/6 1072/1/6 1090/1/6
f 1073/2/6 1074/2/6 1090/2/6
f 1090/2/6 1074/2/6 1091/2/6
f 1091/2/6 1074/2/6 1092/2/6
f 1083/1/6 1084/1/6 1093/1/6
f 1074/1/6 1083/1/6 1093/1/6
f 1084/1/6 1085/1/6 1093/1/6
f 1085/1/6 1086/1/6 1093/1/6
f 1093/1/6 1086/1/6 1094/1/6
f 1080/1/6 1066/1/6 1095/1/6
f 1094/1/6 1086/1/6 1095/1/6
f 1086/1/6 1080/1/6 1095/1/6
f 1066/2/6 1036/2/6 1096/2/6
f 1095/1/6 1066/1/6 1096/1/6
f 1096/2/6 1036/2/6 1097/2/6
f 1097/2/6 1036/2/6 1098/2/6
f 1036/1/6 1037/1/6 1099/1/6
f 1098/2/6 1036/2/6 1099/2/6
f 1037/2/6 984/2/6 1100/2/6
f 1099/1/6 1037/1/6 1100/1/6
f 984/1/6 1087/1/6 1101/1/6
f 1100/2/6 984/2/6 1101/2/6
f 1087/3/6 1088/3/6 1102/3/6
f 1101/1/6 1087/1/6 1102/1/6
f 1088/1/6 1082/1/6 1103/1/6
f 1102/3/6 1088/3/6 1103/3/6
f 1103/1/6 1082/1/6 1104/1/6
f 1082/1/6 1068/1/6 1105/1/6
f 1104/1/6 1082/1/6 1105/1/6
f 1090/2/6 1091/2/6 1106/2/6
f 1089/2/6 1090/2/6 1106/2/6
f 1106/2/6 1091/2/6 1107/2/6
f 1093/3/6 1094/3/6 1108/3/6
f 1094/1/6 1095/1/6 1109/1/6
f 1108/3/6 1094/3/6 1109/3/6
f 1109/1/6 1095/1/6 1110/1/6
f 1110/1/6 1095/1/6 1111/1/6
f 1111/1/6 1095/1/6 1112/1/6
f 1112/1/6 1095/1/6 1113/1/6
f 1095/2/6 1096/2/6 1114/2/6
f 1096/2/6 1097/2/6 1114/2/6
f 1097/1/6 1098/1/6 1115/1/6
f 1114/2/6 1097/2/6 1115/2/6
f 1105/1/6 1068/1/6 1116/1/6
f 1104/3/6 1105/3/6 1116/3/6
f 1116/1/6 1068/1/6 1117/1/6
f 1069/1/6 1089/1/6 1118/1/6
f 1089/2/6 1106/2/6 1118/2/6
f 1118/2/6 1106/2/6 1119/2/6
f 1106/1/6 1107/1/6 1120/1/6
f 1119/2/6 1106/2/6 1120/2/6
f 1107/2/6 1091/2/6 1121/2/6
f 1120/1/6 1107/1/6 1121/1/6
f 1091/1/6 1092/1/6 1122/1/6
f 1121/2/6 1091/2/6 1122/2/6
f 1092/2/6 1074/2/6 1123/2/6
f 1122/1/6 1092/1/6 1123/1/6
f 1074/1/6 1093/1/6 1124/1/6
f 1123/2/6 1074/2/6 1124/2/6
f 1093/3/6 1108/3/6 1125/3/6
f 1108/1/6 1109/1/6 1125/1/6
f 1109/1/6 1110/1/6 1125/1/6
f 1125/1/6 1110/1/6 1126/1/6
f 1111/1/6 1112/1/6 1127/1/6
f 1112/3/6 1113/3/6 1128/3/6
f 1127/1/6 1112/1/6 1128/1/6
f 1113/1/6 1095/1/6 1129/1/6
f 1128/3/6 1113/3/6 1129/3/6
f 1095/2/6 1114/2/6 1130/2/6
f 1129/1/6 1095/1/6 1130/1/6
f 1114/1/6 1115/1/6 1131/1/6
f 1130/2/6 1114/2/6 1131/2/6
f 1099/2/6 1100/2/6 1132/2/6
f 1131/1/6 1115/1/6 1132/1/6
f 1098/2/6 1099/2/6 1132/2/6
f 1115/1/6 1098/1/6 1132/1/6
f 1132/2/6 1100/2/6 1133/2/6
f 1101/1/6 1102/1/6 1134/1/6
f 1103/1/6 1104/1/6 1134/1/6
f 1100/1/6 1101/1/6 1134/1/6
f 1102/1/6 1103/1/6 1134/1/6
f 1134/1/6 1104/1/6 1135/1/6
f 1104/3/6 1116/3/6 1136/3/6
f 1135/1/6 1104/1/6 1136/1/6
f 1116/3/6 1117/3/6 1136/3/6
f 1136/3/6 1117/3/6 1137/3/6
f 1120/2/6 1121/2/6 1138/2/6
f 1119/2/6 1120/2/6 1138/2/6
f 1118/1/6 1119/1/6 1138/1/6
f 1138/2/6 1121/2/6 1139/2/6
f 1121/1/6 1122/1/6 1140/1/6
f 1139/2/6 1121/2/6 1140/2/6
f 1122/1/6 1123/1/6 1140/1/6
f 1123/1/6 1124/1/6 1140/1/6
f 1140/1/6 1124/1/6 1141/1/6
f 1126/1/6 1110/1/6 1142/1/6
f 1142/1/6 1110/1/6 1143/1/6
f 1110/3/6 1111/3/6 1144/3/6
f 1143/1/6 1110/1/6 1144/1/6
f 1111/1/6 1127/1/6 1145/1/6
f 1144/3/6 1111/3/6 1145/3/6
f 1127/3/6 1128/3/6 1146/3/6
f 1145/1/6 1127/1/6 1146/1/6
f 1132/1/6 1133/1/6 1147/1/6
f 1146/3/6 1128/3/6 1147/3/6
f 1131/1/6 1132/1/6 1147/1/6
f 1130/1/6 1131/1/6 1147/1/6
f 1129/1/6 1130/1/6 1147/1/6
f 1128/1/6 1129/1/6 1147/1/6
f 1147/1/6 1133/1/6 1148/1/6
f 1134/3/6 1135/3/6 1149/3/6
f 1100/1/6 1134/1/6 1149/1/6
f 1136/1/6 1137/1/6 1150/1/6
f 1149/3/6 1135/3/6 1150/3/6
f 1135/1/6 1136/1/6 1150/1/6
f 1137/3/6 1117/3/6 1151/3/6
f 1150/1/6 1137/1/6 1151/1/6
f 1151/3/6 1117/3/6 1152/3/6
f 1138/1/6 1139/1/6 1153/1/6
f 1140/2/6 1141/2/6 1153/2/6
f 1139/2/6 1140/2/6 1153/2/6
f 1153/2/6 1141/2/6 1154/2/6
f 1124/1/6 1093/1/6 1155/1/6
f 1141/1/6 1124/1/6 1155/1/6
f 1155/1/6 1093/1/6 1156/1/6
f 1125/3/6 1126/3/6 1157/3/6
f 1156/1/6 1093/1/6 1157/1/6
f 1093/3/6 1125/3/6 1157/3/6
f 1157/3/6 1126/3/6 1158/3/6
f 1145/3/6 1146/3/6 1159/3/6
f 1144/1/6 1145/1/6 1159/1/6
f 1143/1/6 1144/1/6 1159/1/6
f 1147/3/6 1148/3/6 1159/3/6
f 1146/3/6 1147/3/6 1159/3/6
f 1159/3/6 1148/3/6 1160/3/6
f 1149/1/6 1150/1/6 1161/1/6
f 1151/1/6 1152/1/6 1161/1/6
f 1150/1/6 1151/1/6 1161/1/6
f 1161/1/6 1152/1/6 1162/1/6
f 1154/2/6 1141/2/6 1163/2/6
f 1153/1/6 1154/1/6 1163/1/6
f 1141/1/6 1155/1/6 1164/1/6
f 1163/2/6 1141/2/6 1164/2/6
f 1155/2/6 1156/2/6 1165/2/6
f 1164/1/6 1155/1/6 1165/1/6
f 1157/1/6 1158/1/6 1166/1/6
f 1165/2/6 1156/2/6 1166/2/6
f 1156/1/6 1157/1/6 1166/1/6
f 1158/3/6 1126/3/6 1167/3/6
f 1166/1/6 1158/1/6 1167/1/6
f 1126/1/6 1142/1/6 1168/1/6
f 1167/3/6 1126/3/6 1168/3/6
f 1142/2/6 1143/2/6 1169/2/6
f 1168/1/6 1142/1/6 1169/1/6
f 1159/1/6 1160/1/6 1170/1/6
f 1169/2/6 1143/2/6 1170/2/6
f 1143/1/6 1159/1/6 1170/1/6
f 1160/3/6 1148/3/6 1171/3/6
f 1170/1/6 1160/1/6 1171/1/6
f 1148/1/6 1133/1/6 1172/1/6
f 1171/3/6 1148/3/6 1172/3/6
f 1133/2/6 1100/2/6 1173/2/6
f 1172/1/6 1133/1/6 1173/1/6
f 1100/1/6 1149/1/6 1174/1/6
f 1173/2/6 1100/2/6 1174/2/6
f 1149/1/6 1161/1/6 1174/1/6
f 1174/1/6 1161/1/6 1175/1/6
f 1161/3/6 1162/3/6 1176/3/6
f 1175/1/6 1161/1/6 1176/1/6
f 1162/1/6 1152/1/6 1177/1/6
f 1176/3/6 1162/3/6 1177/3/6
f 1177/1/6 1152/1/6 1178/1/6
f 1169/1/6 1170/1/6 1179/1/6
f 1171/1/6 1172/1/6 1179/1/6
f 1177/3/6 1178/3/6 1179/3/6
f 1176/3/6 1177/3/6 1179/3/6
f 1173/1/6 1174/1/6 1179/1/6
f 1175/3/6 1176/3/6 1179/3/6
f 1170/1/6 1171/1/6 1179/1/6
f 1172/1/6 1173/1/6 1179/1/6
f 1174/1/6 1175/1/6 1179/1/6
f 1179/3/6 1178/3/6 1180/3/6
f 1165/1/6 1166/1/6 1181/1/6
f 1166/1/6 1167/1/6 1181/1/6
f 1164/1/6 1165/1/6 1181/1/6
f 1163/1/6 1164/1/6 1181/1/6
f 1167/1/6 1168/1/6 1181/1/6
f 1181/1/6 1168/1/6 1182/1/6
f 1182/1/6 1168/1/6 1183/1/6
f 1183/1/6 1168/1/6 1184/1/6
f 1168/2/6 1169/2/6 1185/2/6
f 1184/1/6 1168/1/6 1185/1/6
f 1179/1/6 1180/1/6 1186/1/6
f 1185/2/6 1169/2/6 1186/2/6
f 1169/1/6 1179/1/6 1186/1/6
f 1178/1/6 1152/1/6 1187/1/6
f 1180/3/6 1178/3/6 1187/3/6
f 1187/1/6 1152/1/6 1188/1/6
f 1163/1/6 1181/1/6 1189/1/6
f 1181/2/6 1182/2/6 1190/2/6
f 1189/1/6 1181/1/6 1190/1/6
f 1190/2/6 1182/2/6 1191/2/6
f 1182/1/6 1183/1/6 1192/1/6
f 1191/2/6 1182/2/6 1192/2/6
f 1183/2/6 1184/2/6 1193/2/6
f 1192/1/6 1183/1/6 1193/1/6
f 1185/1/6 1186/1/6 1194/1/6
f 1193/2/6 1184/2/6 1194/2/6
f 1184/1/6 1185/1/6 1194/1/6
f 1186/1/6 1180/1/6 1195/1/6
f 1194/1/6 1186/1/6 1195/1/6
f 1180/3/6 1187/3/6 1195/3/6
f 1187/3/6 1188/3/6 1195/3/6
f 1195/3/6 1188/3/6 1196/3/6
f 1189/2/6 1190/2/6 1197/2/6
f 1190/2/6 1191/2/6 1197/2/6
f 1193/1/6 1194/1/6 1198/1/6
f 1197/2/6 1191/2/6 1198/2/6
f 1192/1/6 1193/1/6 1198/1/6
f 1194/1/6 1195/1/6 1198/1/6
f 1195/1/6 1196/1/6 1198/1/6
f 1191/1/6 1192/1/6 1198/1/6
f 1196/3/6 1188/3/6 1199/3/6
f 1198/1/6 1196/1/6 1199/1/6
f 1199/3/6 1188/3/6 1200/3/6
f 1189/2/6 1197/2/6 1201/2/6
f 1163/1/6 1189/1/6 1201/1/6
f 1199/1/6 1200/1/6 1202/1/6
f 1201/2/6 1197/2/6 1202/2/6
f 1197/1/6 1198/1/6 1202/1/6
f 1198/1/6 1199/1/6 1202/1/6
f 1202/1/6 1200/1/6 1203/1/6
f 1203/1/6 1200/1/6 1204/1/6
f 1201/1/6 1202/1/6 1205/1/6
f 1202/1/6 1203/1/6 1205/1/6
f 1203/3/6 1204/3/6 1205/3/6
f 1204/1/6 1200/1/6 1206/1/6
f 1205/3/6 1204/3/6 1206/3/6
f 1138/1/6 1153/1/6 1207/1/6
f 1163/1/6 1201/1/6 1207/1/6
f 1205/1/6 1206/1/6 1207/1/6
f 1201/1/6 1205/1/6 1207/1/6
f 1069/1/6 1118/1/6 1207/1/6
f 1153/1/6 1163/1/6 1207/1/6
f 1118/1/6 1138/1/6 1207/1/6
f 691/1/6 1069/1/6 1207/1/6
f 1206/1/6 1200/1/6 1208/1/6
f 1207/1/6 1206/1/6 1208/1/6
