%YAML 1.1
%TAG !u! tag:unity3d.com,2011:
--- !u!74 &7400000
AnimationClip:
  m_ObjectHideFlags: 0
  m_PrefabParentObject: {fileID: 0}
  m_PrefabInternal: {fileID: 0}
  m_Name: BossStomp_01
  serializedVersion: 6
  m_Legacy: 0
  m_Compressed: 0
  m_UseHighQualityCurve: 1
  m_RotationCurves:
  - curve:
      serializedVersion: 2
      m_Curve:
      - serializedVersion: 2
        time: 0
        value: {x: -0.7069847, y: 0, z: 0, w: 0.70722884}
        inSlope: {x: 0, y: 0, z: 0, w: 0}
        outSlope: {x: 0.052552473, y: -8.401142, z: -8.401145, w: -0.026426816}
        tangentMode: 0
      - serializedVersion: 2
        time: 0.7916667
        value: {x: -0.755097, y: -0.00000001620797, z: 0.00000001620797, w: 0.6556131}
        inSlope: {x: -0.06362011, y: 0.008392118, z: 0.0096641, w: -0.073257245}
        outSlope: {x: -0.06373722, y: -0.000000022320512, z: 0.000000022320512, w: -0.073273964}
        tangentMode: 0
      - serializedVersion: 2
        time: 1.1666667
        value: {x: -0.76442814, y: -0.00000001950474, z: 0.00000001950474, w: 0.64470893}
        inSlope: {x: 0.07343291, y: 0.000000026110072, z: -0.000000026110072, w: 0.08694329}
        outSlope: {x: 0.07385017, y: 0.0016690582, z: -0.0016690582, w: 0.08761885}
        tangentMode: 0
      - serializedVersion: 2
        time: 1.5
        value: {x: -0.7069847, y: 0, z: 0, w: 0.70722884}
        inSlope: {x: 0.018596653, y: -0.000003517699, z: 0.000003517699, w: 0.018596653}
        outSlope: {x: 0.019073486, y: 0, z: 0, w: 0.019550323}
        tangentMode: 0
      - serializedVersion: 2
        time: 1.625
        value: {x: -0.7069847, y: 0, z: 0, w: 0.70722884}
        inSlope: {x: 0, y: 0, z: 0, w: 0}
        outSlope: {x: 0, y: 0, z: 0, w: 0}
        tangentMode: 0
      m_PreInfinity: 2
      m_PostInfinity: 2
      m_RotationOrder: 4
    path: 
  m_CompressedRotationCurves: []
  m_EulerCurves: []
  m_PositionCurves:
  - curve:
      serializedVersion: 2
      m_Curve:
      - serializedVersion: 2
        time: 0
        value: {x: 11.564258, y: 3, z: 0}
        inSlope: {x: 1.5428929e-13, y: 0.94169676, z: -0}
        outSlope: {x: 1.5428929e-13, y: 0.94169676, z: -0}
        tangentMode: 0
      - serializedVersion: 2
        time: 0.041666668
        value: {x: 11.564258, y: 3.0392373, z: 0}
        inSlope: {x: 2.5173513e-13, y: 0.94169676, z: -0}
        outSlope: {x: 2.5173513e-13, y: 0.94169676, z: -0}
        tangentMode: 0
      - serializedVersion: 2
        time: 0.083333336
        value: {x: 11.564258, y: 3.1577208, z: 0}
        inSlope: {x: 2.5173513e-13, y: 2.843606, z: -0}
        outSlope: {x: 2.5173513e-13, y: 2.843606, z: -0}
        tangentMode: 0
      - serializedVersion: 2
        time: 0.125
        value: {x: 11.564258, y: 3.3561187, z: 0}
        inSlope: {x: 2.5173516e-13, y: 4.761548, z: -0}
        outSlope: {x: 2.5173516e-13, y: 4.761548, z: -0}
        tangentMode: 0
      - serializedVersion: 2
        time: 0.16666667
        value: {x: 11.564258, y: 3.6343117, z: 0}
        inSlope: {x: 2.517351e-13, y: 6.6766324, z: -0}
        outSlope: {x: 2.517351e-13, y: 6.6766324, z: -0}
        tangentMode: 0
      - serializedVersion: 2
        time: 0.25
        value: {x: 11.564258, y: 4.4245853, z: 0}
        inSlope: {x: 2.517351e-13, y: 10.4008875, z: -0}
        outSlope: {x: 2.517351e-13, y: 10.4008875, z: -0}
        tangentMode: 0
      - serializedVersion: 2
        time: 0.375
        value: {x: 11.564258, y: 6.14019, z: 0}
        inSlope: {x: 2.517352e-13, y: 15.246185, z: -0}
        outSlope: {x: 2.517352e-13, y: 15.246185, z: -0}
        tangentMode: 0
      - serializedVersion: 2
        time: 0.8333333
        value: {x: 11.564258, y: 14.069154, z: 0}
        inSlope: {x: 2.5173537e-13, y: 13.778099, z: -0}
        outSlope: {x: 2.5173537e-13, y: 13.778099, z: -0}
        tangentMode: 0
      - serializedVersion: 2
        time: 1.1666666
        value: {x: 11.564258, y: 15.793679, z: 0}
        inSlope: {x: 2.5173537e-13, y: -4.9517035, z: -0}
        outSlope: {x: 2.5173537e-13, y: -4.9517035, z: -0}
        tangentMode: 0
      - serializedVersion: 2
        time: 1.2083334
        value: {x: 11.564258, y: 15.21331, z: 0}
        inSlope: {x: 2.5173467e-13, y: -13.928821, z: -0}
        outSlope: {x: 2.5173467e-13, y: -13.928821, z: -0}
        tangentMode: 0
      - serializedVersion: 2
        time: 1.25
        value: {x: 11.564258, y: 14.304515, z: 0}
        inSlope: {x: 2.5173537e-13, y: -21.811106, z: -0}
        outSlope: {x: 2.5173537e-13, y: -21.811106, z: -0}
        tangentMode: 0
      - serializedVersion: 2
        time: 1.2916666
        value: {x: 11.564258, y: 13.100055, z: 0}
        inSlope: {x: 2.5173537e-13, y: -28.907078, z: -0}
        outSlope: {x: 2.5173537e-13, y: -28.907078, z: -0}
        tangentMode: 0
      - serializedVersion: 2
        time: 1.3333334
        value: {x: 11.564258, y: 11.622363, z: 0}
        inSlope: {x: 2.5173467e-13, y: -35.46453, z: -0}
        outSlope: {x: 2.5173467e-13, y: -35.46453, z: -0}
        tangentMode: 0
      - serializedVersion: 2
        time: 1.375
        value: {x: 11.564258, y: 9.884262, z: 0}
        inSlope: {x: 2.5173537e-13, y: -41.714466, z: -0}
        outSlope: {x: 2.5173537e-13, y: -41.714466, z: -0}
        tangentMode: 0
      - serializedVersion: 2
        time: 1.4166666
        value: {x: 11.564258, y: 7.887253, z: 0}
        inSlope: {x: 2.5173537e-13, y: -47.928265, z: -0}
        outSlope: {x: 2.5173537e-13, y: -47.928265, z: -0}
        tangentMode: 0
      - serializedVersion: 2
        time: 1.4583334
        value: {x: 11.564258, y: 5.6143026, z: 0}
        inSlope: {x: 2.5173467e-13, y: -54.550694, z: -0}
        outSlope: {x: 2.5173467e-13, y: -54.550694, z: -0}
        tangentMode: 0
      - serializedVersion: 2
        time: 1.5
        value: {x: 11.564258, y: 3, z: 0}
        inSlope: {x: 2.5173537e-13, y: -62.74333, z: -0}
        outSlope: {x: 2.5173537e-13, y: -62.74333, z: -0}
        tangentMode: 0
      - serializedVersion: 2
        time: 1.5416666
        value: {x: 11.564258, y: 3.1873055, z: 0}
        inSlope: {x: 2.5173537e-13, y: 4.4953384, z: -0}
        outSlope: {x: 2.5173537e-13, y: 4.4953384, z: -0}
        tangentMode: 0
      - serializedVersion: 2
        time: 1.5833334
        value: {x: 11.564258, y: 3.287, z: 0}
        inSlope: {x: 2.5173467e-13, y: 2.3926637, z: -0}
        outSlope: {x: 2.5173467e-13, y: 2.3926637, z: -0}
        tangentMode: 0
      - serializedVersion: 2
        time: 1.625
        value: {x: 11.564258, y: 3, z: 0}
        inSlope: {x: 2.5173537e-13, y: -6.8880095, z: -0}
        outSlope: {x: 2.5173537e-13, y: -6.8880095, z: -0}
        tangentMode: 0
      m_PreInfinity: 2
      m_PostInfinity: 2
      m_RotationOrder: 4
    path: 
  m_ScaleCurves:
  - curve:
      serializedVersion: 2
      m_Curve:
      - serializedVersion: 2
        time: 0
        value: {x: 300, y: 300, z: 300}
        inSlope: {x: 0, y: 0, z: 0}
        outSlope: {x: 0, y: 0, z: 0}
        tangentMode: 0
      - serializedVersion: 2
        time: 1.625
        value: {x: 300, y: 300, z: 300}
        inSlope: {x: 0, y: 0, z: 0}
        outSlope: {x: 0, y: 0, z: 0}
        tangentMode: 0
      m_PreInfinity: 2
      m_PostInfinity: 2
      m_RotationOrder: 4
    path: 
  m_FloatCurves: []
  m_PPtrCurves: []
  m_SampleRate: 60
  m_WrapMode: 0
  m_Bounds:
    m_Center: {x: 0, y: 0, z: 0}
    m_Extent: {x: 0, y: 0, z: 0}
  m_ClipBindingConstant:
    genericBindings:
    - serializedVersion: 2
      path: 0
      attribute: 1
      script: {fileID: 0}
      typeID: 4
      customType: 0
      isPPtrCurve: 0
    - serializedVersion: 2
      path: 0
      attribute: 2
      script: {fileID: 0}
      typeID: 4
      customType: 0
      isPPtrCurve: 0
    - serializedVersion: 2
      path: 0
      attribute: 3
      script: {fileID: 0}
      typeID: 4
      customType: 0
      isPPtrCurve: 0
    pptrCurveMapping: []
  m_AnimationClipSettings:
    serializedVersion: 2
    m_AdditiveReferencePoseClip: {fileID: 0}
    m_AdditiveReferencePoseTime: 0
    m_StartTime: 0
    m_StopTime: 1.625
    m_OrientationOffsetY: 0
    m_Level: 0
    m_CycleOffset: 0
    m_HasAdditiveReferencePose: 0
    m_LoopTime: 1
    m_LoopBlend: 0
    m_LoopBlendOrientation: 0
    m_LoopBlendPositionY: 0
    m_LoopBlendPositionXZ: 0
    m_KeepOriginalOrientation: 0
    m_KeepOriginalPositionY: 1
    m_KeepOriginalPositionXZ: 0
    m_HeightFromFeet: 0
    m_Mirror: 0
  m_EditorCurves:
  - curve:
      serializedVersion: 2
      m_Curve:
      - serializedVersion: 2
        time: 0
        value: 11.564258
        inSlope: 1.5428929e-13
        outSlope: 1.5428929e-13
        tangentMode: 0
      - serializedVersion: 2
        time: 0.041666668
        value: 11.564258
        inSlope: 2.5173513e-13
        outSlope: 2.5173513e-13
        tangentMode: 0
      - serializedVersion: 2
        time: 0.083333336
        value: 11.564258
        inSlope: 2.5173513e-13
        outSlope: 2.5173513e-13
        tangentMode: 0
      - serializedVersion: 2
        time: 0.125
        value: 11.564258
        inSlope: 2.5173516e-13
        outSlope: 2.5173516e-13
        tangentMode: 0
      - serializedVersion: 2
        time: 0.16666667
        value: 11.564258
        inSlope: 2.517351e-13
        outSlope: 2.517351e-13
        tangentMode: 0
      - serializedVersion: 2
        time: 0.25
        value: 11.564258
        inSlope: 2.517351e-13
        outSlope: 2.517351e-13
        tangentMode: 0
      - serializedVersion: 2
        time: 0.375
        value: 11.564258
        inSlope: 2.517352e-13
        outSlope: 2.517352e-13
        tangentMode: 0
      - serializedVersion: 2
        time: 0.8333333
        value: 11.564258
        inSlope: 2.5173537e-13
        outSlope: 2.5173537e-13
        tangentMode: 0
      - serializedVersion: 2
        time: 1.1666666
        value: 11.564258
        inSlope: 2.5173537e-13
        outSlope: 2.5173537e-13
        tangentMode: 0
      - serializedVersion: 2
        time: 1.2083334
        value: 11.564258
        inSlope: 2.5173467e-13
        outSlope: 2.5173467e-13
        tangentMode: 0
      - serializedVersion: 2
        time: 1.25
        value: 11.564258
        inSlope: 2.5173537e-13
        outSlope: 2.5173537e-13
        tangentMode: 0
      - serializedVersion: 2
        time: 1.2916666
        value: 11.564258
        inSlope: 2.5173537e-13
        outSlope: 2.5173537e-13
        tangentMode: 0
      - serializedVersion: 2
        time: 1.3333334
        value: 11.564258
        inSlope: 2.5173467e-13
        outSlope: 2.5173467e-13
        tangentMode: 0
      - serializedVersion: 2
        time: 1.375
        value: 11.564258
        inSlope: 2.5173537e-13
        outSlope: 2.5173537e-13
        tangentMode: 0
      - serializedVersion: 2
        time: 1.4166666
        value: 11.564258
        inSlope: 2.5173537e-13
        outSlope: 2.5173537e-13
        tangentMode: 0
      - serializedVersion: 2
        time: 1.4583334
        value: 11.564258
        inSlope: 2.5173467e-13
        outSlope: 2.5173467e-13
        tangentMode: 0
      - serializedVersion: 2
        time: 1.5
        value: 11.564258
        inSlope: 2.5173537e-13
        outSlope: 2.5173537e-13
        tangentMode: 0
      - serializedVersion: 2
        time: 1.5416666
        value: 11.564258
        inSlope: 2.5173537e-13
        outSlope: 2.5173537e-13
        tangentMode: 0
      - serializedVersion: 2
        time: 1.5833334
        value: 11.564258
        inSlope: 2.5173467e-13
        outSlope: 2.5173467e-13
        tangentMode: 0
      - serializedVersion: 2
        time: 1.625
        value: 11.564258
        inSlope: 2.5173537e-13
        outSlope: 2.5173537e-13
        tangentMode: 0
      m_PreInfinity: 2
      m_PostInfinity: 2
      m_RotationOrder: 4
    attribute: m_LocalPosition.x
    path: 
    classID: 4
    script: {fileID: 0}
  - curve:
      serializedVersion: 2
      m_Curve:
      - serializedVersion: 2
        time: 0
        value: 3
        inSlope: 0.94169676
        outSlope: 0.94169676
        tangentMode: 0
      - serializedVersion: 2
        time: 0.041666668
        value: 3.0392373
        inSlope: 0.94169676
        outSlope: 0.94169676
        tangentMode: 0
      - serializedVersion: 2
        time: 0.083333336
        value: 3.1577208
        inSlope: 2.843606
        outSlope: 2.843606
        tangentMode: 0
      - serializedVersion: 2
        time: 0.125
        value: 3.3561187
        inSlope: 4.761548
        outSlope: 4.761548
        tangentMode: 0
      - serializedVersion: 2
        time: 0.16666667
        value: 3.6343117
        inSlope: 6.6766324
        outSlope: 6.6766324
        tangentMode: 0
      - serializedVersion: 2
        time: 0.25
        value: 4.4245853
        inSlope: 10.4008875
        outSlope: 10.4008875
        tangentMode: 0
      - serializedVersion: 2
        time: 0.375
        value: 6.14019
        inSlope: 15.246185
        outSlope: 15.246185
        tangentMode: 0
      - serializedVersion: 2
        time: 0.8333333
        value: 14.069154
        inSlope: 13.778099
        outSlope: 13.778099
        tangentMode: 0
      - serializedVersion: 2
        time: 1.1666666
        value: 15.793679
        inSlope: -4.9517035
        outSlope: -4.9517035
        tangentMode: 0
      - serializedVersion: 2
        time: 1.2083334
        value: 15.21331
        inSlope: -13.928821
        outSlope: -13.928821
        tangentMode: 0
      - serializedVersion: 2
        time: 1.25
        value: 14.304515
        inSlope: -21.811106
        outSlope: -21.811106
        tangentMode: 0
      - serializedVersion: 2
        time: 1.2916666
        value: 13.100055
        inSlope: -28.907078
        outSlope: -28.907078
        tangentMode: 0
      - serializedVersion: 2
        time: 1.3333334
        value: 11.622363
        inSlope: -35.46453
        outSlope: -35.46453
        tangentMode: 0
      - serializedVersion: 2
        time: 1.375
        value: 9.884262
        inSlope: -41.714466
        outSlope: -41.714466
        tangentMode: 0
      - serializedVersion: 2
        time: 1.4166666
        value: 7.887253
        inSlope: -47.928265
        outSlope: -47.928265
        tangentMode: 0
      - serializedVersion: 2
        time: 1.4583334
        value: 5.6143026
        inSlope: -54.550694
        outSlope: -54.550694
        tangentMode: 0
      - serializedVersion: 2
        time: 1.5
        value: 3
        inSlope: -62.74333
        outSlope: -62.74333
        tangentMode: 0
      - serializedVersion: 2
        time: 1.5416666
        value: 3.1873055
        inSlope: 4.4953384
        outSlope: 4.4953384
        tangentMode: 0
      - serializedVersion: 2
        time: 1.5833334
        value: 3.287
        inSlope: 2.3926637
        outSlope: 2.3926637
        tangentMode: 0
      - serializedVersion: 2
        time: 1.625
        value: 3
        inSlope: -6.8880095
        outSlope: -6.8880095
        tangentMode: 0
      m_PreInfinity: 2
      m_PostInfinity: 2
      m_RotationOrder: 4
    attribute: m_LocalPosition.y
    path: 
    classID: 4
    script: {fileID: 0}
  - curve:
      serializedVersion: 2
      m_Curve:
      - serializedVersion: 2
        time: 0
        value: 0
        inSlope: -0
        outSlope: -0
        tangentMode: 0
      - serializedVersion: 2
        time: 0.041666668
        value: 0
        inSlope: -0
        outSlope: -0
        tangentMode: 0
      - serializedVersion: 2
        time: 0.083333336
        value: 0
        inSlope: -0
        outSlope: -0
        tangentMode: 0
      - serializedVersion: 2
        time: 0.125
        value: 0
        inSlope: -0
        outSlope: -0
        tangentMode: 0
      - serializedVersion: 2
        time: 0.16666667
        value: 0
        inSlope: -0
        outSlope: -0
        tangentMode: 0
      - serializedVersion: 2
        time: 0.25
        value: 0
        inSlope: -0
        outSlope: -0
        tangentMode: 0
      - serializedVersion: 2
        time: 0.375
        value: 0
        inSlope: -0
        outSlope: -0
        tangentMode: 0
      - serializedVersion: 2
        time: 0.8333333
        value: 0
        inSlope: -0
        outSlope: -0
        tangentMode: 0
      - serializedVersion: 2
        time: 1.1666666
        value: 0
        inSlope: -0
        outSlope: -0
        tangentMode: 0
      - serializedVersion: 2
        time: 1.2083334
        value: 0
        inSlope: -0
        outSlope: -0
        tangentMode: 0
      - serializedVersion: 2
        time: 1.25
        value: 0
        inSlope: -0
        outSlope: -0
        tangentMode: 0
      - serializedVersion: 2
        time: 1.2916666
        value: 0
        inSlope: -0
        outSlope: -0
        tangentMode: 0
      - serializedVersion: 2
        time: 1.3333334
        value: 0
        inSlope: -0
        outSlope: -0
        tangentMode: 0
      - serializedVersion: 2
        time: 1.375
        value: 0
        inSlope: -0
        outSlope: -0
        tangentMode: 0
      - serializedVersion: 2
        time: 1.4166666
        value: 0
        inSlope: -0
        outSlope: -0
        tangentMode: 0
      - serializedVersion: 2
        time: 1.4583334
        value: 0
        inSlope: -0
        outSlope: -0
        tangentMode: 0
      - serializedVersion: 2
        time: 1.5
        value: 0
        inSlope: -0
        outSlope: -0
        tangentMode: 0
      - serializedVersion: 2
        time: 1.5416666
        value: 0
        inSlope: -0
        outSlope: -0
        tangentMode: 0
      - serializedVersion: 2
        time: 1.5833334
        value: 0
        inSlope: -0
        outSlope: -0
        tangentMode: 0
      - serializedVersion: 2
        time: 1.625
        value: 0
        inSlope: -0
        outSlope: -0
        tangentMode: 0
      m_PreInfinity: 2
      m_PostInfinity: 2
      m_RotationOrder: 4
    attribute: m_LocalPosition.z
    path: 
    classID: 4
    script: {fileID: 0}
  - curve:
      serializedVersion: 2
      m_Curve:
      - serializedVersion: 2
        time: 0
        value: -0.7069847
        inSlope: 0
        outSlope: 0.052552473
        tangentMode: 0
      - serializedVersion: 2
        time: 0.7916667
        value: -0.755097
        inSlope: -0.06362011
        outSlope: -0.06373722
        tangentMode: 0
      - serializedVersion: 2
        time: 1.1666667
        value: -0.76442814
        inSlope: 0.07343291
        outSlope: 0.07385017
        tangentMode: 0
      - serializedVersion: 2
        time: 1.5
        value: -0.7069847
        inSlope: 0.018596653
        outSlope: 0.019073486
        tangentMode: 0
      - serializedVersion: 2
        time: 1.625
        value: -0.7069847
        inSlope: 0
        outSlope: 0
        tangentMode: 0
      m_PreInfinity: 2
      m_PostInfinity: 2
      m_RotationOrder: 4
    attribute: m_LocalRotation.x
    path: 
    classID: 4
    script: {fileID: 0}
  - curve:
      serializedVersion: 2
      m_Curve:
      - serializedVersion: 2
        time: 0
        value: 0
        inSlope: 0
        outSlope: -8.401142
        tangentMode: 0
      - serializedVersion: 2
        time: 0.7916667
        value: -0.00000001620797
        inSlope: 0.008392118
        outSlope: -0.000000022320512
        tangentMode: 0
      - serializedVersion: 2
        time: 1.1666667
        value: -0.00000001950474
        inSlope: 0.000000026110072
        outSlope: 0.0016690582
        tangentMode: 0
      - serializedVersion: 2
        time: 1.5
        value: 0
        inSlope: -0.000003517699
        outSlope: 0
        tangentMode: 0
      - serializedVersion: 2
        time: 1.625
        value: 0
        inSlope: 0
        outSlope: 0
        tangentMode: 0
      m_PreInfinity: 2
      m_PostInfinity: 2
      m_RotationOrder: 4
    attribute: m_LocalRotation.y
    path: 
    classID: 4
    script: {fileID: 0}
  - curve:
      serializedVersion: 2
      m_Curve:
      - serializedVersion: 2
        time: 0
        value: 0
        inSlope: 0
        outSlope: -8.401145
        tangentMode: 0
      - serializedVersion: 2
        time: 0.7916667
        value: 0.00000001620797
        inSlope: 0.0096641
        outSlope: 0.000000022320512
        tangentMode: 0
      - serializedVersion: 2
        time: 1.1666667
        value: 0.00000001950474
        inSlope: -0.000000026110072
        outSlope: -0.0016690582
        tangentMode: 0
      - serializedVersion: 2
        time: 1.5
        value: 0
        inSlope: 0.000003517699
        outSlope: 0
        tangentMode: 0
      - serializedVersion: 2
        time: 1.625
        value: 0
        inSlope: 0
        outSlope: 0
        tangentMode: 0
      m_PreInfinity: 2
      m_PostInfinity: 2
      m_RotationOrder: 4
    attribute: m_LocalRotation.z
    path: 
    classID: 4
    script: {fileID: 0}
  - curve:
      serializedVersion: 2
      m_Curve:
      - serializedVersion: 2
        time: 0
        value: 0.70722884
        inSlope: 0
        outSlope: -0.026426816
        tangentMode: 0
      - serializedVersion: 2
        time: 0.7916667
        value: 0.6556131
        inSlope: -0.073257245
        outSlope: -0.073273964
        tangentMode: 0
      - serializedVersion: 2
        time: 1.1666667
        value: 0.64470893
        inSlope: 0.08694329
        outSlope: 0.08761885
        tangentMode: 0
      - serializedVersion: 2
        time: 1.5
        value: 0.70722884
        inSlope: 0.018596653
        outSlope: 0.019550323
        tangentMode: 0
      - serializedVersion: 2
        time: 1.625
        value: 0.70722884
        inSlope: 0
        outSlope: 0
        tangentMode: 0
      m_PreInfinity: 2
      m_PostInfinity: 2
      m_RotationOrder: 4
    attribute: m_LocalRotation.w
    path: 
    classID: 4
    script: {fileID: 0}
  - curve:
      serializedVersion: 2
      m_Curve:
      - serializedVersion: 2
        time: 0
        value: 300
        inSlope: 0
        outSlope: 0
        tangentMode: 0
      - serializedVersion: 2
        time: 1.625
        value: 300
        inSlope: 0
        outSlope: 0
        tangentMode: 0
      m_PreInfinity: 2
      m_PostInfinity: 2
      m_RotationOrder: 4
    attribute: m_LocalScale.x
    path: 
    classID: 4
    script: {fileID: 0}
  - curve:
      serializedVersion: 2
      m_Curve:
      - serializedVersion: 2
        time: 0
        value: 300
        inSlope: 0
        outSlope: 0
        tangentMode: 0
      - serializedVersion: 2
        time: 1.625
        value: 300
        inSlope: 0
        outSlope: 0
        tangentMode: 0
      m_PreInfinity: 2
      m_PostInfinity: 2
      m_RotationOrder: 4
    attribute: m_LocalScale.y
    path: 
    classID: 4
    script: {fileID: 0}
  - curve:
      serializedVersion: 2
      m_Curve:
      - serializedVersion: 2
        time: 0
        value: 300
        inSlope: 0
        outSlope: 0
        tangentMode: 0
      - serializedVersion: 2
        time: 1.625
        value: 300
        inSlope: 0
        outSlope: 0
        tangentMode: 0
      m_PreInfinity: 2
      m_PostInfinity: 2
      m_RotationOrder: 4
    attribute: m_LocalScale.z
    path: 
    classID: 4
    script: {fileID: 0}
  m_EulerEditorCurves:
  - curve:
      serializedVersion: 2
      m_Curve:
      - serializedVersion: 2
        time: 0
        value: -89.98021
        inSlope: 2.1157355
        outSlope: 2.1157355
        tangentMode: 0
      - serializedVersion: 2
        time: 0.7916667
        value: -81.932304
        inSlope: 11.116776
        outSlope: 11.116776
        tangentMode: 0
      - serializedVersion: 2
        time: 1.1666667
        value: -80.287704
        inSlope: -13.072874
        outSlope: -13.072874
        tangentMode: 0
      - serializedVersion: 2
        time: 1.5
        value: -89.98021
        inSlope: 3.1048744
        outSlope: 3.1048744
        tangentMode: 0
      - serializedVersion: 2
        time: 1.625
        value: -89.98021
        inSlope: 0
        outSlope: 0
        tangentMode: 0
      m_PreInfinity: 2
      m_PostInfinity: 2
      m_RotationOrder: 4
    attribute: localEulerAngles.x
    path: 
    classID: 4
    script: {fileID: 0}
  - curve:
      serializedVersion: 2
      m_Curve:
      - serializedVersion: 2
        time: 0
        value: 0
        inSlope: -682.1052
        outSlope: -682.1052
        tangentMode: 0
      - serializedVersion: 2
        time: 0.7916667
        value: 180
        inSlope: 0
        outSlope: 0
        tangentMode: 0
      - serializedVersion: 2
        time: 1.1666667
        value: 180
        inSlope: 0
        outSlope: 0
        tangentMode: 0
      - serializedVersion: 2
        time: 1.5
        value: 0
        inSlope: 0
        outSlope: 0
        tangentMode: 0
      - serializedVersion: 2
        time: 1.625
        value: 0
        inSlope: 0
        outSlope: 0
        tangentMode: 0
      m_PreInfinity: 2
      m_PostInfinity: 2
      m_RotationOrder: 4
    attribute: localEulerAngles.y
    path: 
    classID: 4
    script: {fileID: 0}
  - curve:
      serializedVersion: 2
      m_Curve:
      - serializedVersion: 2
        time: 0
        value: 0
        inSlope: -682.1052
        outSlope: -682.1052
        tangentMode: 0
      - serializedVersion: 2
        time: 0.7916667
        value: -180
        inSlope: 0
        outSlope: 0
        tangentMode: 0
      - serializedVersion: 2
        time: 1.1666667
        value: -180
        inSlope: 0
        outSlope: 0
        tangentMode: 0
      - serializedVersion: 2
        time: 1.5
        value: 0
        inSlope: 0
        outSlope: 0
        tangentMode: 0
      - serializedVersion: 2
        time: 1.625
        value: 0
        inSlope: 0
        outSlope: 0
        tangentMode: 0
      m_PreInfinity: 2
      m_PostInfinity: 2
      m_RotationOrder: 4
    attribute: localEulerAngles.z
    path: 
    classID: 4
    script: {fileID: 0}
  m_HasGenericRootTransform: 1
  m_HasMotionFloatCurves: 0
  m_GenerateMotionCurves: 0
  m_Events: []
